  0
SECTION
  2
HEADER
  9
$ACADVER
  1
AC1014
  9
$HANDSEED
  5
FFFF
  9
$MEASUREMENT
 70
     1
  0
ENDSEC
  0
SECTION
  2
TABLES
  0
TABLE
  2
VPORT
  5
8
330
0
100
AcDbSymbolTable
 70
     4
  0
VPORT
  5
2E
330
8
100
AcDbSymbolTableRecord
100
AcDbViewportTableRecord
  2
*ACTIVE
 70
     0
 10
0.0
 20
0.0
 11
1.0
 21
1.0
 12
210.0
 22
148.5
 13
0.0
 23
0.0
 14
10.0
 24
10.0
 15
10.0
 25
10.0
 16
0.0
 26
0.0
 36
1.0
 17
0.0
 27
0.0
 37
0.0
 40
341.0
 41
1.24
 42
50.0
 43
0.0
 44
0.0
 50
0.0
 51
0.0
 71
     0
 72
   100
 73
     1
 74
     3
 75
     0
 76
     0
 77
     0
 78
     0
  0
ENDTAB
  0
TABLE
  2
LTYPE
  5
5
330
0
100
AcDbSymbolTable
 70
     1
  0
LTYPE
  5
14
330
5
100
AcDbSymbolTableRecord
100
AcDbLinetypeTableRecord
  2
BYBLOCK
 70
     0
  3

 72
    65
 73
     0
 40
0.0
  0
LTYPE
  5
15
330
5
100
AcDbSymbolTableRecord
100
AcDbLinetypeTableRecord
  2
BYLAYER
 70
     0
  3

 72
    65
 73
     0
 40
0.0
  0
LTYPE
  5
16
330
5
100
AcDbSymbolTableRecord
100
AcDbLinetypeTableRecord
  2
CONTINUOUS
 70
     0
  3
Solid line
 72
    65
 73
     0
 40
0.0
  0
ENDTAB
  0
TABLE
  2
LAYER
  5
2
100
AcDbSymbolTable
 70
1
  0
LAYER
  5
50
100
AcDbSymbolTableRecord
100
AcDbLayerTableRecord
  2
0
 70
0
  6
CONTINUOUS
  0
ENDTAB
  0
TABLE
  2
STYLE
  5
3
330
0
100
AcDbSymbolTable
 70
     1
  0
STYLE
  5
11
330
3
100
AcDbSymbolTableRecord
100
AcDbTextStyleTableRecord
  2
STANDARD
 70
     0
 40
0.0
 41
1.0
 50
0.0
 71
     0
 42
2.5
  3
txt
  4

  0
ENDTAB
  0
TABLE
  2
VIEW
  5
6
330
0
100
AcDbSymbolTable
 70
     0
  0
ENDTAB
  0
TABLE
  2
UCS
  5
7
330
0
100
AcDbSymbolTable
 70
     0
  0
ENDTAB
  0
TABLE
  2
APPID
  5
9
330
0
100
AcDbSymbolTable
 70
     2
  0
APPID
  5
12
330
9
100
AcDbSymbolTableRecord
100
AcDbRegAppTableRecord
  2
ACAD
 70
     0
  0
ENDTAB
  0
TABLE
  2
DIMSTYLE
  5
A
330
0
100
AcDbSymbolTable
 70
     1
  0
DIMSTYLE
105
27
330
A
100
AcDbSymbolTableRecord
100
AcDbDimStyleTableRecord
  2
ISO-25
 70
     0
  3

  4

  5

  6

  7

 40
1.0
 41
2.5
 42
0.625
 43
3.75
 44
1.25
 45
0.0
 46
0.0
 47
0.0
 48
0.0
140
2.5
141
2.5
142
0.0
143
0.03937007874016
144
1.0
145
0.0
146
1.0
147
0.625
 71
     0
 72
     0
 73
     0
 74
     0
 75
     0
 76
     0
 77
     1
 78
     8
170
     0
171
     3
172
     1
173
     0
174
     0
175
     0
176
     0
177
     0
178
     0
270
     2
271
     2
272
     2
273
     2
274
     3
340
11
275
     0
280
     0
281
     0
282
     0
283
     0
284
     8
285
     0
286
     0
287
     3
288
     0
  0
ENDTAB
  0
TABLE
  2
BLOCK_RECORD
  5
1
330
0
100
AcDbSymbolTable
 70
     1
  0
BLOCK_RECORD
  5
1F
330
1
100
AcDbSymbolTableRecord
100
AcDbBlockTableRecord
  2
*MODEL_SPACE
  0
BLOCK_RECORD
  5
1B
330
1
100
AcDbSymbolTableRecord
100
AcDbBlockTableRecord
  2
*PAPER_SPACE
  0
ENDTAB
  0
ENDSEC
  0
SECTION
  2
BLOCKS
  0
BLOCK
  5
20
330
1F
100
AcDbEntity
  8
0
100
AcDbBlockBegin
  2
*MODEL_SPACE
 70
     0
 10
0.0
 20
0.0
 30
0.0
  3
*MODEL_SPACE
  1

  0
ENDBLK
  5
21
330
1F
100
AcDbEntity
  8
0
100
AcDbBlockEnd
  0
BLOCK
  5
1C
330
1B
100
AcDbEntity
 67
     1
  8
0
100
AcDbBlockBegin
  2
*PAPER_SPACE
  1

  0
ENDBLK
  5
1D
330
1B
100
AcDbEntity
 67
     1
  8
0
100
AcDbBlockEnd
  0
ENDSEC
  0
SECTION
  2
ENTITIES
  0
SPLINE
  5
100
100
AcDbEntity
  8
0
 62
7
100
AcDbSpline
 70
8
 71
3
 72
8
 73
4
 74
0
 40
0
 40
0
 40
0
 40
0
 40
1
 40
1
 40
1
 40
1
 10
29.060291
 20
80.000000
 30
0.0
 10
34.691998
 20
80.000000
 30
0.0
 10
40.323705
 20
80.000000
 30
0.0
 10
45.955412
 20
80.000000
 30
0.0
  0
SPLINE
  5
101
100
AcDbEntity
  8
0
 62
7
100
AcDbSpline
 70
8
 71
3
 72
8
 73
4
 74
0
 40
0
 40
0
 40
0
 40
0
 40
1
 40
1
 40
1
 40
1
 10
45.955412
 20
80.000000
 30
0.0
 10
45.952326
 20
76.715095
 30
0.0
 10
45.961584
 20
73.430190
 30
0.0
 10
45.950783
 20
70.146827
 30
0.0
  0
SPLINE
  5
102
100
AcDbEntity
  8
0
 62
7
100
AcDbSpline
 70
8
 71
3
 72
8
 73
4
 74
0
 40
0
 40
0
 40
0
 40
0
 40
1
 40
1
 40
1
 40
1
 10
45.950783
 20
70.146827
 30
0.0
 10
44.360019
 20
70.017221
 30
0.0
 10
42.772340
 20
69.847498
 30
0.0
 10
41.181576
 20
69.727149
 30
0.0
  0
SPLINE
  5
103
100
AcDbEntity
  8
0
 62
7
100
AcDbSpline
 70
8
 71
3
 72
8
 73
4
 74
0
 40
0
 40
0
 40
0
 40
0
 40
1
 40
1
 40
1
 40
1
 10
41.181576
 20
69.727149
 30
0.0
 10
41.107515
 20
71.665074
 30
0.0
 10
41.014939
 20
73.604541
 30
0.0
 10
40.976366
 20
75.544009
 30
0.0
  0
SPLINE
  5
104
100
AcDbEntity
  8
0
 62
7
100
AcDbSpline
 70
8
 71
3
 72
8
 73
4
 74
0
 40
0
 40
0
 40
0
 40
0
 40
1
 40
1
 40
1
 40
1
 10
40.976366
 20
75.544009
 30
0.0
 10
39.112502
 20
75.118159
 30
0.0
 10
37.248638
 20
74.692309
 30
0.0
 10
35.389404
 20
74.251030
 30
0.0
  0
SPLINE
  5
105
100
AcDbEntity
  8
0
 62
7
100
AcDbSpline
 70
8
 71
3
 72
8
 73
4
 74
0
 40
0
 40
0
 40
0
 40
0
 40
1
 40
1
 40
1
 40
1
 10
35.389404
 20
74.251030
 30
0.0
 10
34.793831
 20
64.442602
 30
0.0
 10
34.246090
 20
54.629546
 30
0.0
 10
33.650518
 20
44.821118
 30
0.0
  0
SPLINE
  5
106
100
AcDbEntity
  8
0
 62
7
100
AcDbSpline
 70
8
 71
3
 72
8
 73
4
 74
0
 40
0
 40
0
 40
0
 40
0
 40
1
 40
1
 40
1
 40
1
 10
33.650518
 20
44.821118
 30
0.0
 10
36.261161
 20
44.822661
 30
0.0
 10
38.870261
 20
44.821118
 30
0.0
 10
41.480905
 20
44.821118
 30
0.0
  0
SPLINE
  5
107
100
AcDbEntity
  8
0
 62
7
100
AcDbSpline
 70
8
 71
3
 72
8
 73
4
 74
0
 40
0
 40
0
 40
0
 40
0
 40
1
 40
1
 40
1
 40
1
 10
41.480905
 20
44.821118
 30
0.0
 10
41.494791
 20
46.183528
 30
0.0
 10
41.402215
 20
47.542852
 30
0.0
 10
41.400672
 20
48.905262
 30
0.0
  0
SPLINE
  5
108
100
AcDbEntity
  8
0
 62
7
100
AcDbSpline
 70
8
 71
3
 72
8
 73
4
 74
0
 40
0
 40
0
 40
0
 40
0
 40
1
 40
1
 40
1
 40
1
 10
41.400672
 20
48.905262
 30
0.0
 10
42.955949
 20
49.028697
 30
0.0
 10
44.512769
 20
49.141331
 30
0.0
 10
46.069589
 20
49.227736
 30
0.0
  0
SPLINE
  5
109
100
AcDbEntity
  8
0
 62
7
100
AcDbSpline
 70
8
 71
3
 72
8
 73
4
 74
0
 40
0
 40
0
 40
0
 40
0
 40
1
 40
1
 40
1
 40
1
 10
46.069589
 20
49.227736
 30
0.0
 10
46.072675
 20
46.165013
 30
0.0
 10
46.069589
 20
43.100747
 30
0.0
 10
46.071132
 20
40.038024
 30
0.0
  0
SPLINE
  5
10a
100
AcDbEntity
  8
0
 62
7
100
AcDbSpline
 70
8
 71
3
 72
8
 73
4
 74
0
 40
0
 40
0
 40
0
 40
0
 40
1
 40
1
 40
1
 40
1
 10
46.071132
 20
40.038024
 30
0.0
 10
40.257359
 20
40.038024
 30
0.0
 10
34.443585
 20
40.038024
 30
0.0
 10
28.629812
 20
40.038024
 30
0.0
  0
SPLINE
  5
10b
100
AcDbEntity
  8
0
 62
7
100
AcDbSpline
 70
8
 71
3
 72
8
 73
4
 74
0
 40
0
 40
0
 40
0
 40
0
 40
1
 40
1
 40
1
 40
1
 10
28.629812
 20
40.038024
 30
0.0
 10
28.785648
 20
50.221385
 30
0.0
 10
28.845823
 20
60.404746
 30
0.0
 10
28.983144
 20
70.588106
 30
0.0
  0
SPLINE
  5
10c
100
AcDbEntity
  8
0
 62
7
100
AcDbSpline
 70
8
 71
3
 72
8
 73
4
 74
0
 40
0
 40
0
 40
0
 40
0
 40
1
 40
1
 40
1
 40
1
 10
28.983144
 20
70.588106
 30
0.0
 10
28.987773
 20
73.726433
 30
0.0
 10
29.075720
 20
76.861674
 30
0.0
 10
29.060291
 20
80.000000
 30
0.0
  0
SPLINE
  5
10d
100
AcDbEntity
  8
0
 62
7
100
AcDbSpline
 70
8
 71
3
 72
8
 73
4
 74
0
 40
0
 40
0
 40
0
 40
0
 40
1
 40
1
 40
1
 40
1
 10
16.573330
 20
76.171983
 30
0.0
 10
17.846250
 20
77.373928
 30
0.0
 10
19.702399
 20
77.640855
 30
0.0
 10
21.385740
 20
77.562166
 30
0.0
  0
SPLINE
  5
10e
100
AcDbEntity
  8
0
 62
7
100
AcDbSpline
 70
8
 71
3
 72
8
 73
4
 74
0
 40
0
 40
0
 40
0
 40
0
 40
1
 40
1
 40
1
 40
1
 10
21.385740
 20
77.562166
 30
0.0
 10
22.782094
 20
77.474218
 30
0.0
 10
24.286454
 20
76.830815
 30
0.0
 10
24.945287
 20
75.530122
 30
0.0
  0
SPLINE
  5
10f
100
AcDbEntity
  8
0
 62
7
100
AcDbSpline
 70
8
 71
3
 72
8
 73
4
 74
0
 40
0
 40
0
 40
0
 40
0
 40
1
 40
1
 40
1
 40
1
 10
24.945287
 20
75.530122
 30
0.0
 10
25.104209
 20
69.401591
 30
0.0
 10
25.284732
 20
63.265344
 30
0.0
 10
25.395824
 20
57.133727
 30
0.0
  0
SPLINE
  5
110
100
AcDbEntity
  8
0
 62
7
100
AcDbSpline
 70
8
 71
3
 72
8
 73
4
 74
0
 40
0
 40
0
 40
0
 40
0
 40
1
 40
1
 40
1
 40
1
 10
25.395824
 20
57.133727
 30
0.0
 10
17.411143
 20
56.704791
 30
0.0
 10
9.431091
 20
56.190994
 30
0.0
 10
1.446410
 20
55.768230
 30
0.0
  0
SPLINE
  5
111
100
AcDbEntity
  8
0
 62
7
100
AcDbSpline
 70
8
 71
3
 72
8
 73
4
 74
0
 40
0
 40
0
 40
0
 40
0
 40
1
 40
1
 40
1
 40
1
 10
1.446410
 20
55.768230
 30
0.0
 10
0.437332
 20
57.582720
 30
0.0
 10
-0.298647
 20
59.711968
 30
0.0
 10
0.119488
 20
61.804186
 30
0.0
  0
SPLINE
  5
112
100
AcDbEntity
  8
0
 62
7
100
AcDbSpline
 70
8
 71
3
 72
8
 73
4
 74
0
 40
0
 40
0
 40
0
 40
0
 40
1
 40
1
 40
1
 40
1
 10
0.119488
 20
61.804186
 30
0.0
 10
0.394130
 20
63.192826
 30
0.0
 10
1.435610
 20
64.242021
 30
0.0
 10
2.507949
 20
65.082920
 30
0.0
  0
SPLINE
  5
113
100
AcDbEntity
  8
0
 62
7
100
AcDbSpline
 70
8
 71
3
 72
8
 73
4
 74
0
 40
0
 40
0
 40
0
 40
0
 40
1
 40
1
 40
1
 40
1
 10
2.507949
 20
65.082920
 30
0.0
 10
3.463024
 20
65.815813
 30
0.0
 10
4.660341
 20
66.389784
 30
0.0
 10
5.894688
 20
66.175317
 30
0.0
  0
SPLINE
  5
114
100
AcDbEntity
  8
0
 62
7
100
AcDbSpline
 70
8
 71
3
 72
8
 73
4
 74
0
 40
0
 40
0
 40
0
 40
0
 40
1
 40
1
 40
1
 40
1
 10
5.894688
 20
66.175317
 30
0.0
 10
5.007501
 20
67.776882
 30
0.0
 10
4.461302
 20
69.733321
 30
0.0
 10
5.052246
 20
71.529296
 30
0.0
  0
SPLINE
  5
115
100
AcDbEntity
  8
0
 62
7
100
AcDbSpline
 70
8
 71
3
 72
8
 73
4
 74
0
 40
0
 40
0
 40
0
 40
0
 40
1
 40
1
 40
1
 40
1
 10
5.052246
 20
71.529296
 30
0.0
 10
5.508954
 20
72.937994
 30
0.0
 10
6.741758
 20
73.930100
 30
0.0
 10
8.050166
 20
74.521044
 30
0.0
  0
SPLINE
  5
116
100
AcDbEntity
  8
0
 62
7
100
AcDbSpline
 70
8
 71
3
 72
8
 73
4
 74
0
 40
0
 40
0
 40
0
 40
0
 40
1
 40
1
 40
1
 40
1
 10
8.050166
 20
74.521044
 30
0.0
 10
9.253654
 20
75.074957
 30
0.0
 10
10.708640
 20
75.130502
 30
0.0
 10
11.909042
 20
74.539559
 30
0.0
  0
SPLINE
  5
117
100
AcDbEntity
  8
0
 62
7
100
AcDbSpline
 70
8
 71
3
 72
8
 73
4
 74
0
 40
0
 40
0
 40
0
 40
0
 40
1
 40
1
 40
1
 40
1
 10
11.909042
 20
74.539559
 30
0.0
 10
13.254480
 20
73.911585
 30
0.0
 10
14.257387
 20
72.748213
 30
0.0
 10
15.021139
 20
71.504609
 30
0.0
  0
SPLINE
  5
118
100
AcDbEntity
  8
0
 62
7
100
AcDbSpline
 70
8
 71
3
 72
8
 73
4
 74
0
 40
0
 40
0
 40
0
 40
0
 40
1
 40
1
 40
1
 40
1
 10
15.021139
 20
71.504609
 30
0.0
 10
14.940906
 20
73.169434
 30
0.0
 10
15.335897
 20
74.977752
 30
0.0
 10
16.573330
 20
76.171983
 30
0.0
  0
SPLINE
  5
119
100
AcDbEntity
  8
0
 62
7
100
AcDbSpline
 70
8
 71
3
 72
8
 73
4
 74
0
 40
0
 40
0
 40
0
 40
0
 40
1
 40
1
 40
1
 40
1
 10
20.600386
 20
67.681220
 30
0.0
 10
19.739430
 20
67.412749
 30
0.0
 10
18.875387
 20
67.151994
 30
0.0
 10
18.015973
 20
66.878894
 30
0.0
  0
SPLINE
  5
11a
100
AcDbEntity
  8
0
 62
7
100
AcDbSpline
 70
8
 71
3
 72
8
 73
4
 74
0
 40
0
 40
0
 40
0
 40
0
 40
1
 40
1
 40
1
 40
1
 10
18.015973
 20
66.878894
 30
0.0
 10
17.810763
 20
68.127127
 30
0.0
 10
16.187597
 20
68.668697
 30
0.0
 10
15.184690
 20
68.000607
 30
0.0
  0
SPLINE
  5
11b
100
AcDbEntity
  8
0
 62
7
100
AcDbSpline
 70
8
 71
3
 72
8
 73
4
 74
0
 40
0
 40
0
 40
0
 40
0
 40
1
 40
1
 40
1
 40
1
 10
15.184690
 20
68.000607
 30
0.0
 10
14.626148
 20
67.665790
 30
0.0
 10
14.266645
 20
67.101077
 30
0.0
 10
13.965773
 20
66.540992
 30
0.0
  0
SPLINE
  5
11c
100
AcDbEntity
  8
0
 62
7
100
AcDbSpline
 70
8
 71
3
 72
8
 73
4
 74
0
 40
0
 40
0
 40
0
 40
0
 40
1
 40
1
 40
1
 40
1
 10
13.965773
 20
66.540992
 30
0.0
 10
13.504435
 20
67.236855
 30
0.0
 10
12.728340
 20
67.925003
 30
0.0
 10
11.827267
 20
67.704364
 30
0.0
  0
SPLINE
  5
11d
100
AcDbEntity
  8
0
 62
7
100
AcDbSpline
 70
8
 71
3
 72
8
 73
4
 74
0
 40
0
 40
0
 40
0
 40
0
 40
1
 40
1
 40
1
 40
1
 10
11.827267
 20
67.704364
 30
0.0
 10
10.688582
 20
67.326345
 30
0.0
 10
9.920201
 20
66.058054
 30
0.0
 10
10.139298
 20
64.868452
 30
0.0
  0
SPLINE
  5
11e
100
AcDbEntity
  8
0
 62
7
100
AcDbSpline
 70
8
 71
3
 72
8
 73
4
 74
0
 40
0
 40
0
 40
0
 40
0
 40
1
 40
1
 40
1
 40
1
 10
10.139298
 20
64.868452
 30
0.0
 10
10.193300
 20
64.124758
 30
0.0
 10
10.731784
 20
63.575474
 30
0.0
 10
11.156091
 20
63.012303
 30
0.0
  0
SPLINE
  5
11f
100
AcDbEntity
  8
0
 62
7
100
AcDbSpline
 70
8
 71
3
 72
8
 73
4
 74
0
 40
0
 40
0
 40
0
 40
0
 40
1
 40
1
 40
1
 40
1
 10
11.156091
 20
63.012303
 30
0.0
 10
9.764365
 20
62.222321
 30
0.0
 10
8.366467
 20
61.441597
 30
0.0
 10
6.974741
 20
60.651615
 30
0.0
  0
SPLINE
  5
120
100
AcDbEntity
  8
0
 62
7
100
AcDbSpline
 70
8
 71
3
 72
8
 73
4
 74
0
 40
0
 40
0
 40
0
 40
0
 40
1
 40
1
 40
1
 40
1
 10
6.974741
 20
60.651615
 30
0.0
 10
6.417742
 20
61.183927
 30
0.0
 10
5.371633
 20
61.177755
 30
0.0
 10
4.999786
 20
60.435604
 30
0.0
  0
SPLINE
  5
121
100
AcDbEntity
  8
0
 62
7
100
AcDbSpline
 70
8
 71
3
 72
8
 73
4
 74
0
 40
0
 40
0
 40
0
 40
0
 40
1
 40
1
 40
1
 40
1
 10
4.999786
 20
60.435604
 30
0.0
 10
4.544621
 20
59.668766
 30
0.0
 10
5.208082
 20
58.567112
 30
0.0
 10
6.116870
 20
58.701347
 30
0.0
  0
SPLINE
  5
122
100
AcDbEntity
  8
0
 62
7
100
AcDbSpline
 70
8
 71
3
 72
8
 73
4
 74
0
 40
0
 40
0
 40
0
 40
0
 40
1
 40
1
 40
1
 40
1
 10
6.116870
 20
58.701347
 30
0.0
 10
6.879079
 20
58.699804
 30
0.0
 10
7.317272
 20
59.500587
 30
0.0
 10
7.200009
 20
60.190278
 30
0.0
  0
SPLINE
  5
123
100
AcDbEntity
  8
0
 62
7
100
AcDbSpline
 70
8
 71
3
 72
8
 73
4
 74
0
 40
0
 40
0
 40
0
 40
0
 40
1
 40
1
 40
1
 40
1
 10
7.200009
 20
60.190278
 30
0.0
 10
8.627223
 20
60.987974
 30
0.0
 10
10.046722
 20
61.798014
 30
0.0
 10
11.472392
 20
62.597254
 30
0.0
  0
SPLINE
  5
124
100
AcDbEntity
  8
0
 62
7
100
AcDbSpline
 70
8
 71
3
 72
8
 73
4
 74
0
 40
0
 40
0
 40
0
 40
0
 40
1
 40
1
 40
1
 40
1
 10
11.472392
 20
62.597254
 30
0.0
 10
12.007790
 20
61.909106
 30
0.0
 10
12.532387
 20
61.214786
 30
0.0
 10
13.063156
 20
60.525094
 30
0.0
  0
SPLINE
  5
125
100
AcDbEntity
  8
0
 62
7
100
AcDbSpline
 70
8
 71
3
 72
8
 73
4
 74
0
 40
0
 40
0
 40
0
 40
0
 40
1
 40
1
 40
1
 40
1
 10
13.063156
 20
60.525094
 30
0.0
 10
14.294417
 20
61.677666
 30
0.0
 10
15.493277
 20
62.867267
 30
0.0
 10
16.716823
 20
64.027553
 30
0.0
  0
SPLINE
  5
126
100
AcDbEntity
  8
0
 62
7
100
AcDbSpline
 70
8
 71
3
 72
8
 73
4
 74
0
 40
0
 40
0
 40
0
 40
0
 40
1
 40
1
 40
1
 40
1
 10
16.716823
 20
64.027553
 30
0.0
 10
18.204211
 20
63.305460
 30
0.0
 10
19.697770
 20
62.597254
 30
0.0
 10
21.197502
 20
61.899848
 30
0.0
  0
SPLINE
  5
127
100
AcDbEntity
  8
0
 62
7
100
AcDbSpline
 70
8
 71
3
 72
8
 73
4
 74
0
 40
0
 40
0
 40
0
 40
0
 40
1
 40
1
 40
1
 40
1
 10
21.197502
 20
61.899848
 30
0.0
 10
20.827198
 20
61.157697
 30
0.0
 10
21.246876
 20
60.088444
 30
0.0
 10
22.152577
 20
60.089987
 30
0.0
  0
SPLINE
  5
128
100
AcDbEntity
  8
0
 62
7
100
AcDbSpline
 70
8
 71
3
 72
8
 73
4
 74
0
 40
0
 40
0
 40
0
 40
0
 40
1
 40
1
 40
1
 40
1
 10
22.152577
 20
60.089987
 30
0.0
 10
23.056736
 20
59.960381
 30
0.0
 10
23.717112
 20
61.052778
 30
0.0
 10
23.268118
 20
61.819616
 30
0.0
  0
SPLINE
  5
129
100
AcDbEntity
  8
0
 62
7
100
AcDbSpline
 70
8
 71
3
 72
8
 73
4
 74
0
 40
0
 40
0
 40
0
 40
0
 40
1
 40
1
 40
1
 40
1
 10
23.268118
 20
61.819616
 30
0.0
 10
22.967246
 20
62.444504
 30
0.0
 10
22.166464
 20
62.538622
 30
0.0
 10
21.584778
 20
62.277867
 30
0.0
  0
SPLINE
  5
12a
100
AcDbEntity
  8
0
 62
7
100
AcDbSpline
 70
8
 71
3
 72
8
 73
4
 74
0
 40
0
 40
0
 40
0
 40
0
 40
1
 40
1
 40
1
 40
1
 10
21.584778
 20
62.277867
 30
0.0
 10
20.097390
 20
62.984530
 30
0.0
 10
18.605373
 20
63.685022
 30
0.0
 10
17.121071
 20
64.400943
 30
0.0
  0
SPLINE
  5
12b
100
AcDbEntity
  8
0
 62
7
100
AcDbSpline
 70
8
 71
3
 72
8
 73
4
 74
0
 40
0
 40
0
 40
0
 40
0
 40
1
 40
1
 40
1
 40
1
 10
17.121071
 20
64.400943
 30
0.0
 10
17.728987
 20
64.871538
 30
0.0
 10
17.909510
 20
65.638376
 30
0.0
 10
18.025230
 20
66.357383
 30
0.0
  0
SPLINE
  5
12c
100
AcDbEntity
  8
0
 62
7
100
AcDbSpline
 70
8
 71
3
 72
8
 73
4
 74
0
 40
0
 40
0
 40
0
 40
0
 40
1
 40
1
 40
1
 40
1
 10
18.025230
 20
66.357383
 30
0.0
 10
18.974135
 20
66.630482
 30
0.0
 10
19.912238
 20
66.943698
 30
0.0
 10
20.861142
 20
67.219883
 30
0.0
  0
SPLINE
  5
12d
100
AcDbEntity
  8
0
 62
7
100
AcDbSpline
 70
8
 71
3
 72
8
 73
4
 74
0
 40
0
 40
0
 40
0
 40
0
 40
1
 40
1
 40
1
 40
1
 10
20.861142
 20
67.219883
 30
0.0
 10
21.424313
 20
66.726144
 30
0.0
 10
22.431848
 20
66.744659
 30
0.0
 10
22.799067
 20
67.463666
 30
0.0
  0
SPLINE
  5
12e
100
AcDbEntity
  8
0
 62
7
100
AcDbSpline
 70
8
 71
3
 72
8
 73
4
 74
0
 40
0
 40
0
 40
0
 40
0
 40
1
 40
1
 40
1
 40
1
 10
22.799067
 20
67.463666
 30
0.0
 10
23.258861
 20
68.228961
 30
0.0
 10
22.600028
 20
69.336787
 30
0.0
 10
21.689697
 20
69.205638
 30
0.0
  0
SPLINE
  5
12f
100
AcDbEntity
  8
0
 62
7
100
AcDbSpline
 70
8
 71
3
 72
8
 73
4
 74
0
 40
0
 40
0
 40
0
 40
0
 40
1
 40
1
 40
1
 40
1
 10
21.689697
 20
69.205638
 30
0.0
 10
20.905887
 20
69.210267
 30
0.0
 10
20.481581
 20
68.381712
 30
0.0
 10
20.600386
 20
67.681220
 30
0.0
  0
LWPOLYLINE
  5
130
100
AcDbEntity
  8
0
 62
7
100
AcDbPolyline
 90
1
 70
1
 10
29.060291
 20
80.000000
 30
0.0
  0
SPLINE
  5
131
100
AcDbEntity
  8
0
 62
7
100
AcDbSpline
 70
8
 71
3
 72
8
 73
4
 74
0
 40
0
 40
0
 40
0
 40
0
 40
1
 40
1
 40
1
 40
1
 10
55.678979
 20
61.058949
 30
0.0
 10
60.499103
 20
61.062035
 30
0.0
 10
65.319227
 20
61.060492
 30
0.0
 10
70.140894
 20
61.060492
 30
0.0
  0
SPLINE
  5
132
100
AcDbEntity
  8
0
 62
7
100
AcDbSpline
 70
8
 71
3
 72
8
 73
4
 74
0
 40
0
 40
0
 40
0
 40
0
 40
1
 40
1
 40
1
 40
1
 10
70.140894
 20
61.060492
 30
0.0
 10
70.140894
 20
54.052488
 30
0.0
 10
70.140894
 20
47.046028
 30
0.0
 10
70.140894
 20
40.038024
 30
0.0
  0
SPLINE
  5
133
100
AcDbEntity
  8
0
 62
7
100
AcDbSpline
 70
8
 71
3
 72
8
 73
4
 74
0
 40
0
 40
0
 40
0
 40
0
 40
1
 40
1
 40
1
 40
1
 10
70.140894
 20
40.038024
 30
0.0
 10
65.161848
 20
40.038024
 30
0.0
 10
60.184344
 20
40.036481
 30
0.0
 10
55.205298
 20
40.039567
 30
0.0
  0
SPLINE
  5
134
100
AcDbEntity
  8
0
 62
7
100
AcDbSpline
 70
8
 71
3
 72
8
 73
4
 74
0
 40
0
 40
0
 40
0
 40
0
 40
1
 40
1
 40
1
 40
1
 10
55.205298
 20
40.039567
 30
0.0
 10
55.384278
 20
47.046028
 30
0.0
 10
55.518514
 20
54.052488
 30
0.0
 10
55.678979
 20
61.058949
 30
0.0
  0
SPLINE
  5
135
100
AcDbEntity
  8
0
 62
7
100
AcDbSpline
 70
8
 71
3
 72
8
 73
4
 74
0
 40
0
 40
0
 40
0
 40
0
 40
1
 40
1
 40
1
 40
1
 10
60.156572
 20
56.498038
 30
0.0
 10
59.960619
 20
52.191711
 30
0.0
 10
59.712207
 20
47.885383
 30
0.0
 10
59.527055
 20
43.579056
 30
0.0
  0
SPLINE
  5
136
100
AcDbEntity
  8
0
 62
7
100
AcDbSpline
 70
8
 71
3
 72
8
 73
4
 74
0
 40
0
 40
0
 40
0
 40
0
 40
1
 40
1
 40
1
 40
1
 10
59.527055
 20
43.579056
 30
0.0
 10
61.765851
 20
43.768837
 30
0.0
 10
64.006190
 20
43.938560
 30
0.0
 10
66.244987
 20
44.139141
 30
0.0
  0
SPLINE
  5
137
100
AcDbEntity
  8
0
 62
7
100
AcDbSpline
 70
8
 71
3
 72
8
 73
4
 74
0
 40
0
 40
0
 40
0
 40
0
 40
1
 40
1
 40
1
 40
1
 10
66.244987
 20
44.139141
 30
0.0
 10
66.084522
 20
48.501014
 30
0.0
 10
66.008918
 20
52.867516
 30
0.0
 10
65.853082
 20
57.229388
 30
0.0
  0
SPLINE
  5
138
100
AcDbEntity
  8
0
 62
7
100
AcDbSpline
 70
8
 71
3
 72
8
 73
4
 74
0
 40
0
 40
0
 40
0
 40
0
 40
1
 40
1
 40
1
 40
1
 10
65.853082
 20
57.229388
 30
0.0
 10
63.952188
 20
56.990234
 30
0.0
 10
62.055923
 20
56.738736
 30
0.0
 10
60.156572
 20
56.498038
 30
0.0
  0
LWPOLYLINE
  5
139
100
AcDbEntity
  8
0
 62
7
100
AcDbPolyline
 90
1
 70
1
 10
20.600386
 20
67.681220
 30
0.0
  0
SPLINE
  5
13a
100
AcDbEntity
  8
0
 62
7
100
AcDbSpline
 70
8
 71
3
 72
8
 73
4
 74
0
 40
0
 40
0
 40
0
 40
0
 40
1
 40
1
 40
1
 40
1
 10
1.248915
 20
52.458638
 30
0.0
 10
7.423735
 20
52.458638
 30
0.0
 10
13.598554
 20
52.460181
 30
0.0
 10
19.771831
 20
52.457095
 30
0.0
  0
SPLINE
  5
13b
100
AcDbEntity
  8
0
 62
7
100
AcDbSpline
 70
8
 71
3
 72
8
 73
4
 74
0
 40
0
 40
0
 40
0
 40
0
 40
1
 40
1
 40
1
 40
1
 10
19.771831
 20
52.457095
 30
0.0
 10
19.545020
 20
47.575254
 30
0.0
 10
19.347524
 20
42.691869
 30
0.0
 10
19.111456
 20
37.810028
 30
0.0
  0
SPLINE
  5
13c
100
AcDbEntity
  8
0
 62
7
100
AcDbSpline
 70
8
 71
3
 72
8
 73
4
 74
0
 40
0
 40
0
 40
0
 40
0
 40
1
 40
1
 40
1
 40
1
 10
19.111456
 20
37.810028
 30
0.0
 10
17.853965
 20
36.824093
 30
0.0
 10
16.614989
 20
35.811929
 30
0.0
 10
15.360584
 20
34.819823
 30
0.0
  0
SPLINE
  5
13d
100
AcDbEntity
  8
0
 62
7
100
AcDbSpline
 70
8
 71
3
 72
8
 73
4
 74
0
 40
0
 40
0
 40
0
 40
0
 40
1
 40
1
 40
1
 40
1
 10
15.360584
 20
34.819823
 30
0.0
 10
16.628876
 20
32.991447
 30
0.0
 10
17.943455
 20
31.193929
 30
0.0
 10
19.196317
 20
29.356295
 30
0.0
  0
SPLINE
  5
13e
100
AcDbEntity
  8
0
 62
7
100
AcDbSpline
 70
8
 71
3
 72
8
 73
4
 74
0
 40
0
 40
0
 40
0
 40
0
 40
1
 40
1
 40
1
 40
1
 10
19.196317
 20
29.356295
 30
0.0
 10
19.154658
 20
27.572664
 30
0.0
 10
18.952533
 20
25.787490
 30
0.0
 10
18.853786
 20
24.002316
 30
0.0
  0
SPLINE
  5
13f
100
AcDbEntity
  8
0
 62
7
100
AcDbSpline
 70
8
 71
3
 72
8
 73
4
 74
0
 40
0
 40
0
 40
0
 40
0
 40
1
 40
1
 40
1
 40
1
 10
18.853786
 20
24.002316
 30
0.0
 10
18.579144
 20
20.191271
 30
0.0
 10
18.315302
 20
16.380225
 30
0.0
 10
18.039117
 20
12.570722
 30
0.0
  0
SPLINE
  5
140
100
AcDbEntity
  8
0
 62
7
100
AcDbSpline
 70
8
 71
3
 72
8
 73
4
 74
0
 40
0
 40
0
 40
0
 40
0
 40
1
 40
1
 40
1
 40
1
 10
18.039117
 20
12.570722
 30
0.0
 10
12.236144
 20
12.578437
 30
0.0
 10
6.434714
 20
12.570722
 30
0.0
 10
0.631742
 20
12.573808
 30
0.0
  0
SPLINE
  5
141
100
AcDbEntity
  8
0
 62
7
100
AcDbSpline
 70
8
 71
3
 72
8
 73
4
 74
0
 40
0
 40
0
 40
0
 40
0
 40
1
 40
1
 40
1
 40
1
 10
0.631742
 20
12.573808
 30
0.0
 10
0.793750
 20
25.869266
 30
0.0
 10
1.073021
 20
39.163181
 30
0.0
 10
1.248915
 20
52.458638
 30
0.0
  0
SPLINE
  5
142
100
AcDbEntity
  8
0
 62
7
100
AcDbSpline
 70
8
 71
3
 72
8
 73
4
 74
0
 40
0
 40
0
 40
0
 40
0
 40
1
 40
1
 40
1
 40
1
 10
6.470202
 20
47.115460
 30
0.0
 10
6.251105
 20
43.849069
 30
0.0
 10
5.967205
 20
40.587308
 30
0.0
 10
5.734222
 20
37.322461
 30
0.0
  0
SPLINE
  5
143
100
AcDbEntity
  8
0
 62
7
100
AcDbSpline
 70
8
 71
3
 72
8
 73
4
 74
0
 40
0
 40
0
 40
0
 40
0
 40
1
 40
1
 40
1
 40
1
 10
5.734222
 20
37.322461
 30
0.0
 10
7.875814
 20
37.151195
 30
0.0
 10
10.015863
 20
36.976844
 30
0.0
 10
12.154369
 20
36.785520
 30
0.0
  0
SPLINE
  5
144
100
AcDbEntity
  8
0
 62
7
100
AcDbSpline
 70
8
 71
3
 72
8
 73
4
 74
0
 40
0
 40
0
 40
0
 40
0
 40
1
 40
1
 40
1
 40
1
 10
12.154369
 20
36.785520
 30
0.0
 10
12.509243
 20
40.257120
 30
0.0
 10
12.800858
 20
43.734892
 30
0.0
 10
13.138760
 20
47.209579
 30
0.0
  0
SPLINE
  5
145
100
AcDbEntity
  8
0
 62
7
100
AcDbSpline
 70
8
 71
3
 72
8
 73
4
 74
0
 40
0
 40
0
 40
0
 40
0
 40
1
 40
1
 40
1
 40
1
 10
13.138760
 20
47.209579
 30
0.0
 10
10.915393
 20
47.206493
 30
0.0
 10
8.693569
 20
47.143232
 30
0.0
 10
6.470202
 20
47.115460
 30
0.0
  0
SPLINE
  5
146
100
AcDbEntity
  8
0
 62
7
100
AcDbSpline
 70
8
 71
3
 72
8
 73
4
 74
0
 40
0
 40
0
 40
0
 40
0
 40
1
 40
1
 40
1
 40
1
 10
6.383797
 20
31.775615
 30
0.0
 10
6.115327
 20
26.748738
 30
0.0
 10
5.874629
 20
21.721861
 30
0.0
 10
5.624674
 20
16.694984
 30
0.0
  0
SPLINE
  5
147
100
AcDbEntity
  8
0
 62
7
100
AcDbSpline
 70
8
 71
3
 72
8
 73
4
 74
0
 40
0
 40
0
 40
0
 40
0
 40
1
 40
1
 40
1
 40
1
 10
5.624674
 20
16.694984
 30
0.0
 10
8.235318
 20
16.926424
 30
0.0
 10
10.847504
 20
17.122376
 30
0.0
 10
13.459690
 20
17.349187
 30
0.0
  0
SPLINE
  5
148
100
AcDbEntity
  8
0
 62
7
100
AcDbSpline
 70
8
 71
3
 72
8
 73
4
 74
0
 40
0
 40
0
 40
0
 40
0
 40
1
 40
1
 40
1
 40
1
 10
13.459690
 20
17.349187
 30
0.0
 10
13.180419
 20
22.266516
 30
0.0
 10
12.885719
 20
27.182302
 30
0.0
 10
12.600276
 20
32.099631
 30
0.0
  0
SPLINE
  5
149
100
AcDbEntity
  8
0
 62
7
100
AcDbSpline
 70
8
 71
3
 72
8
 73
4
 74
0
 40
0
 40
0
 40
0
 40
0
 40
1
 40
1
 40
1
 40
1
 10
12.600276
 20
32.099631
 30
0.0
 10
10.528117
 20
31.993169
 30
0.0
 10
8.455957
 20
31.892878
 30
0.0
 10
6.383797
 20
31.775615
 30
0.0
  0
LWPOLYLINE
  5
14a
100
AcDbEntity
  8
0
 62
7
100
AcDbPolyline
 90
1
 70
1
 10
60.156572
 20
56.498038
 30
0.0
  0
SPLINE
  5
14b
100
AcDbEntity
  8
0
 62
7
100
AcDbSpline
 70
8
 71
3
 72
8
 73
4
 74
0
 40
0
 40
0
 40
0
 40
0
 40
1
 40
1
 40
1
 40
1
 10
28.831936
 20
33.596277
 30
0.0
 10
33.652061
 20
33.596277
 30
0.0
 10
38.473728
 20
33.596277
 30
0.0
 10
43.293852
 20
33.596277
 30
0.0
  0
SPLINE
  5
14c
100
AcDbEntity
  8
0
 62
7
100
AcDbSpline
 70
8
 71
3
 72
8
 73
4
 74
0
 40
0
 40
0
 40
0
 40
0
 40
1
 40
1
 40
1
 40
1
 10
43.293852
 20
33.596277
 30
0.0
 10
43.293852
 20
26.588273
 30
0.0
 10
43.293852
 20
19.581812
 30
0.0
 10
43.293852
 20
12.573808
 30
0.0
  0
SPLINE
  5
14d
100
AcDbEntity
  8
0
 62
7
100
AcDbSpline
 70
8
 71
3
 72
8
 73
4
 74
0
 40
0
 40
0
 40
0
 40
0
 40
1
 40
1
 40
1
 40
1
 10
43.293852
 20
12.573808
 30
0.0
 10
38.314805
 20
12.573808
 30
0.0
 10
33.337302
 20
12.572265
 30
0.0
 10
28.358256
 20
12.575351
 30
0.0
  0
SPLINE
  5
14e
100
AcDbEntity
  8
0
 62
7
100
AcDbSpline
 70
8
 71
3
 72
8
 73
4
 74
0
 40
0
 40
0
 40
0
 40
0
 40
1
 40
1
 40
1
 40
1
 10
28.358256
 20
12.575351
 30
0.0
 10
28.537236
 20
19.581812
 30
0.0
 10
28.669928
 20
26.588273
 30
0.0
 10
28.831936
 20
33.596277
 30
0.0
  0
SPLINE
  5
14f
100
AcDbEntity
  8
0
 62
7
100
AcDbSpline
 70
8
 71
3
 72
8
 73
4
 74
0
 40
0
 40
0
 40
0
 40
0
 40
1
 40
1
 40
1
 40
1
 10
33.307986
 20
29.033822
 30
0.0
 10
33.115120
 20
24.725952
 30
0.0
 10
32.865164
 20
20.421168
 30
0.0
 10
32.680012
 20
16.114841
 30
0.0
  0
SPLINE
  5
150
100
AcDbEntity
  8
0
 62
7
100
AcDbSpline
 70
8
 71
3
 72
8
 73
4
 74
0
 40
0
 40
0
 40
0
 40
0
 40
1
 40
1
 40
1
 40
1
 10
32.680012
 20
16.114841
 30
0.0
 10
34.918809
 20
16.304621
 30
0.0
 10
37.159148
 20
16.474344
 30
0.0
 10
39.397945
 20
16.674925
 30
0.0
  0
SPLINE
  5
151
100
AcDbEntity
  8
0
 62
7
100
AcDbSpline
 70
8
 71
3
 72
8
 73
4
 74
0
 40
0
 40
0
 40
0
 40
0
 40
1
 40
1
 40
1
 40
1
 10
39.397945
 20
16.674925
 30
0.0
 10
39.237480
 20
21.036798
 30
0.0
 10
39.161876
 20
25.403300
 30
0.0
 10
39.006040
 20
29.765173
 30
0.0
  0
SPLINE
  5
152
100
AcDbEntity
  8
0
 62
7
100
AcDbSpline
 70
8
 71
3
 72
8
 73
4
 74
0
 40
0
 40
0
 40
0
 40
0
 40
1
 40
1
 40
1
 40
1
 10
39.006040
 20
29.765173
 30
0.0
 10
37.105146
 20
29.526018
 30
0.0
 10
35.207337
 20
29.274520
 30
0.0
 10
33.307986
 20
29.033822
 30
0.0
  0
LWPOLYLINE
  5
153
100
AcDbEntity
  8
0
 62
7
100
AcDbPolyline
 90
1
 70
1
 10
6.383797
 20
31.775615
 30
0.0
  0
SPLINE
  5
154
100
AcDbEntity
  8
0
 62
7
100
AcDbSpline
 70
8
 71
3
 72
8
 73
4
 74
0
 40
0
 40
0
 40
0
 40
0
 40
1
 40
1
 40
1
 40
1
 10
51.252303
 20
33.593191
 30
0.0
 10
52.849239
 20
33.599363
 30
0.0
 10
54.447718
 20
33.597820
 30
0.0
 10
56.044654
 20
33.593191
 30
0.0
  0
SPLINE
  5
155
100
AcDbEntity
  8
0
 62
7
100
AcDbSpline
 70
8
 71
3
 72
8
 73
4
 74
0
 40
0
 40
0
 40
0
 40
0
 40
1
 40
1
 40
1
 40
1
 10
56.044654
 20
33.593191
 30
0.0
 10
57.721823
 20
31.010320
 30
0.0
 10
59.406706
 20
28.433621
 30
0.0
 10
61.105476
 20
25.866180
 30
0.0
  0
SPLINE
  5
156
100
AcDbEntity
  8
0
 62
7
100
AcDbSpline
 70
8
 71
3
 72
8
 73
4
 74
0
 40
0
 40
0
 40
0
 40
0
 40
1
 40
1
 40
1
 40
1
 10
61.105476
 20
25.866180
 30
0.0
 10
62.623722
 20
28.450594
 30
0.0
 10
64.178999
 20
31.013406
 30
0.0
 10
65.695703
 20
33.599363
 30
0.0
  0
SPLINE
  5
157
100
AcDbEntity
  8
0
 62
7
100
AcDbSpline
 70
8
 71
3
 72
8
 73
4
 74
0
 40
0
 40
0
 40
0
 40
0
 40
1
 40
1
 40
1
 40
1
 10
65.695703
 20
33.599363
 30
0.0
 10
67.417616
 20
33.525302
 30
0.0
 10
69.137987
 20
33.429640
 30
0.0
 10
70.858358
 20
33.318549
 30
0.0
  0
SPLINE
  5
158
100
AcDbEntity
  8
0
 62
7
100
AcDbSpline
 70
8
 71
3
 72
8
 73
4
 74
0
 40
0
 40
0
 40
0
 40
0
 40
1
 40
1
 40
1
 40
1
 10
70.858358
 20
33.318549
 30
0.0
 10
68.661221
 20
29.893236
 30
0.0
 10
66.476427
 20
26.461752
 30
0.0
 10
64.276204
 20
23.036440
 30
0.0
  0
SPLINE
  5
159
100
AcDbEntity
  8
0
 62
7
100
AcDbSpline
 70
8
 71
3
 72
8
 73
4
 74
0
 40
0
 40
0
 40
0
 40
0
 40
1
 40
1
 40
1
 40
1
 10
64.276204
 20
23.036440
 30
0.0
 10
66.246530
 20
19.547867
 30
0.0
 10
68.232285
 20
16.067010
 30
0.0
 10
70.197982
 20
12.573808
 30
0.0
  0
SPLINE
  5
15a
100
AcDbEntity
  8
0
 62
7
100
AcDbSpline
 70
8
 71
3
 72
8
 73
4
 74
0
 40
0
 40
0
 40
0
 40
0
 40
1
 40
1
 40
1
 40
1
 10
70.197982
 20
12.573808
 30
0.0
 10
68.698251
 20
12.573808
 30
0.0
 10
67.200063
 20
12.573808
 30
0.0
 10
65.701874
 20
12.573808
 30
0.0
  0
SPLINE
  5
15b
100
AcDbEntity
  8
0
 62
7
100
AcDbSpline
 70
8
 71
3
 72
8
 73
4
 74
0
 40
0
 40
0
 40
0
 40
0
 40
1
 40
1
 40
1
 40
1
 10
65.701874
 20
12.573808
 30
0.0
 10
64.381123
 20
15.301715
 30
0.0
 10
63.055743
 20
18.028078
 30
0.0
 10
61.748879
 20
20.763699
 30
0.0
  0
SPLINE
  5
15c
100
AcDbEntity
  8
0
 62
7
100
AcDbSpline
 70
8
 71
3
 72
8
 73
4
 74
0
 40
0
 40
0
 40
0
 40
0
 40
1
 40
1
 40
1
 40
1
 10
61.748879
 20
20.763699
 30
0.0
 10
59.588772
 20
18.040421
 30
0.0
 10
57.456438
 20
15.295543
 30
0.0
 10
55.294788
 20
12.572265
 30
0.0
  0
SPLINE
  5
15d
100
AcDbEntity
  8
0
 62
7
100
AcDbSpline
 70
8
 71
3
 72
8
 73
4
 74
0
 40
0
 40
0
 40
0
 40
0
 40
1
 40
1
 40
1
 40
1
 10
55.294788
 20
12.572265
 30
0.0
 10
53.791971
 20
12.575351
 30
0.0
 10
52.290697
 20
12.572265
 30
0.0
 10
50.787880
 20
12.573808
 30
0.0
  0
SPLINE
  5
15e
100
AcDbEntity
  8
0
 62
7
100
AcDbSpline
 70
8
 71
3
 72
8
 73
4
 74
0
 40
0
 40
0
 40
0
 40
0
 40
1
 40
1
 40
1
 40
1
 10
50.787880
 20
12.573808
 30
0.0
 10
53.383094
 20
16.060838
 30
0.0
 10
55.975222
 20
19.549410
 30
0.0
 10
58.567350
 20
23.037983
 30
0.0
  0
SPLINE
  5
15f
100
AcDbEntity
  8
0
 62
7
100
AcDbSpline
 70
8
 71
3
 72
8
 73
4
 74
0
 40
0
 40
0
 40
0
 40
0
 40
1
 40
1
 40
1
 40
1
 10
58.567350
 20
23.037983
 30
0.0
 10
56.124886
 20
26.554328
 30
0.0
 10
53.690137
 20
30.073760
 30
0.0
 10
51.252303
 20
33.593191
 30
0.0
  0
LWPOLYLINE
  5
160
100
AcDbEntity
  8
0
 62
7
100
AcDbPolyline
 90
1
 70
1
 10
33.307986
 20
29.033822
 30
0.0
  0
SPLINE
  5
161
100
AcDbEntity
  8
0
 62
7
100
AcDbSpline
 70
8
 71
3
 72
8
 73
4
 74
0
 40
0
 40
0
 40
0
 40
0
 40
1
 40
1
 40
1
 40
1
 10
36.210244
 20
7.155026
 30
0.0
 10
36.571291
 20
7.170455
 30
0.0
 10
36.933880
 20
7.175084
 30
0.0
 10
37.298012
 20
7.171998
 30
0.0
  0
SPLINE
  5
162
100
AcDbEntity
  8
0
 62
7
100
AcDbSpline
 70
8
 71
3
 72
8
 73
4
 74
0
 40
0
 40
0
 40
0
 40
0
 40
1
 40
1
 40
1
 40
1
 10
37.298012
 20
7.171998
 30
0.0
 10
37.307270
 20
6.868040
 30
0.0
 10
37.308813
 20
6.562539
 30
0.0
 10
37.299555
 20
6.257039
 30
0.0
  0
SPLINE
  5
163
100
AcDbEntity
  8
0
 62
7
100
AcDbSpline
 70
8
 71
3
 72
8
 73
4
 74
0
 40
0
 40
0
 40
0
 40
0
 40
1
 40
1
 40
1
 40
1
 10
37.299555
 20
6.257039
 30
0.0
 10
36.936966
 20
6.249324
 30
0.0
 10
36.574377
 20
6.250867
 30
0.0
 10
36.213330
 20
6.263210
 30
0.0
  0
SPLINE
  5
164
100
AcDbEntity
  8
0
 62
7
100
AcDbSpline
 70
8
 71
3
 72
8
 73
4
 74
0
 40
0
 40
0
 40
0
 40
0
 40
1
 40
1
 40
1
 40
1
 10
36.213330
 20
6.263210
 30
0.0
 10
36.202530
 20
6.560997
 30
0.0
 10
36.202530
 20
6.858783
 30
0.0
 10
36.210244
 20
7.155026
 30
0.0
  0
LWPOLYLINE
  5
165
100
AcDbEntity
  8
0
 62
7
100
AcDbPolyline
 90
1
 70
1
 10
51.252303
 20
33.593191
 30
0.0
  0
SPLINE
  5
166
100
AcDbEntity
  8
0
 62
7
100
AcDbSpline
 70
8
 71
3
 72
8
 73
4
 74
0
 40
0
 40
0
 40
0
 40
0
 40
1
 40
1
 40
1
 40
1
 10
53.798143
 20
7.164284
 30
0.0
 10
54.159189
 20
7.171998
 30
0.0
 10
54.520236
 20
7.173541
 30
0.0
 10
54.882825
 20
7.170455
 30
0.0
  0
SPLINE
  5
167
100
AcDbEntity
  8
0
 62
7
100
AcDbSpline
 70
8
 71
3
 72
8
 73
4
 74
0
 40
0
 40
0
 40
0
 40
0
 40
1
 40
1
 40
1
 40
1
 10
54.882825
 20
7.170455
 30
0.0
 10
54.932199
 20
5.423855
 30
0.0
 10
54.888997
 20
3.674168
 30
0.0
 10
54.905969
 20
1.926024
 30
0.0
  0
SPLINE
  5
168
100
AcDbEntity
  8
0
 62
7
100
AcDbSpline
 70
8
 71
3
 72
8
 73
4
 74
0
 40
0
 40
0
 40
0
 40
0
 40
1
 40
1
 40
1
 40
1
 10
54.905969
 20
1.926024
 30
0.0
 10
55.047919
 20
1.276449
 30
0.0
 10
54.217821
 20
1.447715
 30
0.0
 10
53.829001
 20
1.521776
 30
0.0
  0
SPLINE
  5
169
100
AcDbEntity
  8
0
 62
7
100
AcDbSpline
 70
8
 71
3
 72
8
 73
4
 74
0
 40
0
 40
0
 40
0
 40
0
 40
1
 40
1
 40
1
 40
1
 10
53.829001
 20
1.521776
 30
0.0
 10
53.734882
 20
3.396440
 30
0.0
 10
53.799686
 20
5.284991
 30
0.0
 10
53.798143
 20
7.164284
 30
0.0
  0
LWPOLYLINE
  5
16a
100
AcDbEntity
  8
0
 62
7
100
AcDbPolyline
 90
1
 70
1
 10
36.210244
 20
7.155026
 30
0.0
  0
SPLINE
  5
16b
100
AcDbEntity
  8
0
 62
7
100
AcDbSpline
 70
8
 71
3
 72
8
 73
4
 74
0
 40
0
 40
0
 40
0
 40
0
 40
1
 40
1
 40
1
 40
1
 10
68.426695
 20
7.170455
 30
0.0
 10
68.786198
 20
7.175084
 30
0.0
 10
69.145702
 20
7.171998
 30
0.0
 10
69.506748
 20
7.161198
 30
0.0
  0
SPLINE
  5
16c
100
AcDbEntity
  8
0
 62
7
100
AcDbSpline
 70
8
 71
3
 72
8
 73
4
 74
0
 40
0
 40
0
 40
0
 40
0
 40
1
 40
1
 40
1
 40
1
 10
69.506748
 20
7.161198
 30
0.0
 10
69.540693
 20
5.360594
 30
0.0
 10
69.520635
 20
3.558448
 30
0.0
 10
69.519092
 20
1.757845
 30
0.0
  0
SPLINE
  5
16d
100
AcDbEntity
  8
0
 62
7
100
AcDbSpline
 70
8
 71
3
 72
8
 73
4
 74
0
 40
0
 40
0
 40
0
 40
0
 40
1
 40
1
 40
1
 40
1
 10
69.519092
 20
1.757845
 30
0.0
 10
69.576180
 20
1.390627
 30
0.0
 10
69.127187
 20
1.464687
 30
0.0
 10
68.903461
 20
1.456973
 30
0.0
  0
SPLINE
  5
16e
100
AcDbEntity
  8
0
 62
7
100
AcDbSpline
 70
8
 71
3
 72
8
 73
4
 74
0
 40
0
 40
0
 40
0
 40
0
 40
1
 40
1
 40
1
 40
1
 10
68.903461
 20
1.456973
 30
0.0
 10
68.624190
 20
1.396798
 30
0.0
 10
68.457554
 20
1.560349
 30
0.0
 10
68.385036
 20
1.813390
 30
0.0
  0
SPLINE
  5
16f
100
AcDbEntity
  8
0
 62
7
100
AcDbSpline
 70
8
 71
3
 72
8
 73
4
 74
0
 40
0
 40
0
 40
0
 40
0
 40
1
 40
1
 40
1
 40
1
 10
68.385036
 20
1.813390
 30
0.0
 10
67.647513
 20
1.162272
 30
0.0
 10
66.369965
 20
1.208560
 30
0.0
 10
65.785193
 20
2.038659
 30
0.0
  0
SPLINE
  5
170
100
AcDbEntity
  8
0
 62
7
100
AcDbSpline
 70
8
 71
3
 72
8
 73
4
 74
0
 40
0
 40
0
 40
0
 40
0
 40
1
 40
1
 40
1
 40
1
 10
65.785193
 20
2.038659
 30
0.0
 10
65.109388
 20
3.013793
 30
0.0
 10
65.149504
 20
4.564441
 30
0.0
 10
66.082979
 20
5.365223
 30
0.0
  0
SPLINE
  5
171
100
AcDbEntity
  8
0
 62
7
100
AcDbSpline
 70
8
 71
3
 72
8
 73
4
 74
0
 40
0
 40
0
 40
0
 40
0
 40
1
 40
1
 40
1
 40
1
 10
66.082979
 20
5.365223
 30
0.0
 10
66.755698
 20
5.899078
 30
0.0
 10
67.730832
 20
5.775643
 30
0.0
 10
68.366520
 20
5.244874
 30
0.0
  0
SPLINE
  5
172
100
AcDbEntity
  8
0
 62
7
100
AcDbSpline
 70
8
 71
3
 72
8
 73
4
 74
0
 40
0
 40
0
 40
0
 40
0
 40
1
 40
1
 40
1
 40
1
 10
68.366520
 20
5.244874
 30
0.0
 10
68.440581
 20
5.885192
 30
0.0
 10
68.380407
 20
6.530138
 30
0.0
 10
68.426695
 20
7.170455
 30
0.0
  0
SPLINE
  5
173
100
AcDbEntity
  8
0
 62
7
100
AcDbSpline
 70
8
 71
3
 72
8
 73
4
 74
0
 40
0
 40
0
 40
0
 40
0
 40
1
 40
1
 40
1
 40
1
 10
67.223207
 20
4.839083
 30
0.0
 10
66.058292
 20
4.481122
 30
0.0
 10
66.207957
 20
2.208381
 30
0.0
 10
67.520993
 20
2.196038
 30
0.0
  0
SPLINE
  5
174
100
AcDbEntity
  8
0
 62
7
100
AcDbSpline
 70
8
 71
3
 72
8
 73
4
 74
0
 40
0
 40
0
 40
0
 40
0
 40
1
 40
1
 40
1
 40
1
 10
67.520993
 20
2.196038
 30
0.0
 10
68.364978
 20
2.253126
 30
0.0
 10
68.554758
 20
3.276091
 30
0.0
 10
68.414351
 20
3.948810
 30
0.0
  0
SPLINE
  5
175
100
AcDbEntity
  8
0
 62
7
100
AcDbSpline
 70
8
 71
3
 72
8
 73
4
 74
0
 40
0
 40
0
 40
0
 40
0
 40
1
 40
1
 40
1
 40
1
 10
68.414351
 20
3.948810
 30
0.0
 10
68.368063
 20
4.527410
 30
0.0
 10
67.807979
 20
5.004177
 30
0.0
 10
67.223207
 20
4.839083
 30
0.0
  0
LWPOLYLINE
  5
176
100
AcDbEntity
  8
0
 62
7
100
AcDbPolyline
 90
1
 70
1
 10
53.798143
 20
7.164284
 30
0.0
  0
SPLINE
  5
177
100
AcDbEntity
  8
0
 62
7
100
AcDbSpline
 70
8
 71
3
 72
8
 73
4
 74
0
 40
0
 40
0
 40
0
 40
0
 40
1
 40
1
 40
1
 40
1
 10
33.747722
 20
6.815581
 30
0.0
 10
34.101054
 20
6.826381
 30
0.0
 10
34.455929
 20
6.827924
 30
0.0
 10
34.810804
 20
6.824838
 30
0.0
  0
SPLINE
  5
178
100
AcDbEntity
  8
0
 62
7
100
AcDbSpline
 70
8
 71
3
 72
8
 73
4
 74
0
 40
0
 40
0
 40
0
 40
0
 40
1
 40
1
 40
1
 40
1
 10
34.810804
 20
6.824838
 30
0.0
 10
34.843205
 20
6.442191
 30
0.0
 10
34.835490
 20
6.054914
 30
0.0
 10
34.874064
 20
5.670724
 30
0.0
  0
SPLINE
  5
179
100
AcDbEntity
  8
0
 62
7
100
AcDbSpline
 70
8
 71
3
 72
8
 73
4
 74
0
 40
0
 40
0
 40
0
 40
0
 40
1
 40
1
 40
1
 40
1
 10
34.874064
 20
5.670724
 30
0.0
 10
35.105504
 20
5.542660
 30
0.0
 10
35.395575
 20
5.642951
 30
0.0
 10
35.633187
 20
5.530317
 30
0.0
  0
SPLINE
  5
17a
100
AcDbEntity
  8
0
 62
7
100
AcDbSpline
 70
8
 71
3
 72
8
 73
4
 74
0
 40
0
 40
0
 40
0
 40
0
 40
1
 40
1
 40
1
 40
1
 10
35.633187
 20
5.530317
 30
0.0
 10
35.725763
 20
5.315849
 30
0.0
 10
35.688733
 20
5.082866
 30
0.0
 10
35.617758
 20
4.866856
 30
0.0
  0
SPLINE
  5
17b
100
AcDbEntity
  8
0
 62
7
100
AcDbSpline
 70
8
 71
3
 72
8
 73
4
 74
0
 40
0
 40
0
 40
0
 40
0
 40
1
 40
1
 40
1
 40
1
 10
35.617758
 20
4.866856
 30
0.0
 10
35.380146
 20
4.811310
 30
0.0
 10
35.006756
 20
4.959432
 30
0.0
 10
34.861720
 20
4.706391
 30
0.0
  0
SPLINE
  5
17c
100
AcDbEntity
  8
0
 62
7
100
AcDbSpline
 70
8
 71
3
 72
8
 73
4
 74
0
 40
0
 40
0
 40
0
 40
0
 40
1
 40
1
 40
1
 40
1
 10
34.861720
 20
4.706391
 30
0.0
 10
34.840119
 20
3.992012
 30
0.0
 10
34.812346
 20
3.268377
 30
0.0
 10
34.881778
 20
2.555541
 30
0.0
  0
SPLINE
  5
17d
100
AcDbEntity
  8
0
 62
7
100
AcDbSpline
 70
8
 71
3
 72
8
 73
4
 74
0
 40
0
 40
0
 40
0
 40
0
 40
1
 40
1
 40
1
 40
1
 10
34.881778
 20
2.555541
 30
0.0
 10
34.986698
 20
2.220725
 30
0.0
 10
35.465007
 20
2.416677
 30
0.0
 10
35.676389
 20
2.196038
 30
0.0
  0
SPLINE
  5
17e
100
AcDbEntity
  8
0
 62
7
100
AcDbSpline
 70
8
 71
3
 72
8
 73
4
 74
0
 40
0
 40
0
 40
0
 40
0
 40
1
 40
1
 40
1
 40
1
 10
35.676389
 20
2.196038
 30
0.0
 10
35.697990
 20
1.953797
 30
0.0
 10
35.796738
 20
1.480117
 30
0.0
 10
35.451121
 20
1.440000
 30
0.0
  0
SPLINE
  5
17f
100
AcDbEntity
  8
0
 62
7
100
AcDbSpline
 70
8
 71
3
 72
8
 73
4
 74
0
 40
0
 40
0
 40
0
 40
0
 40
1
 40
1
 40
1
 40
1
 10
35.451121
 20
1.440000
 30
0.0
 10
34.883321
 20
1.416856
 30
0.0
 10
34.045509
 20
1.335081
 30
0.0
 10
33.792467
 20
1.986199
 30
0.0
  0
SPLINE
  5
180
100
AcDbEntity
  8
0
 62
7
100
AcDbSpline
 70
8
 71
3
 72
8
 73
4
 74
0
 40
0
 40
0
 40
0
 40
0
 40
1
 40
1
 40
1
 40
1
 10
33.792467
 20
1.986199
 30
0.0
 10
33.632002
 20
2.879557
 30
0.0
 10
33.792467
 20
3.799146
 30
0.0
 10
33.712235
 20
4.701762
 30
0.0
  0
SPLINE
  5
181
100
AcDbEntity
  8
0
 62
7
100
AcDbSpline
 70
8
 71
3
 72
8
 73
4
 74
0
 40
0
 40
0
 40
0
 40
0
 40
1
 40
1
 40
1
 40
1
 10
33.712235
 20
4.701762
 30
0.0
 10
33.604230
 20
4.933202
 30
0.0
 10
33.260155
 20
4.800509
 30
0.0
 10
33.067289
 20
4.871484
 30
0.0
  0
SPLINE
  5
182
100
AcDbEntity
  8
0
 62
7
100
AcDbSpline
 70
8
 71
3
 72
8
 73
4
 74
0
 40
0
 40
0
 40
0
 40
0
 40
1
 40
1
 40
1
 40
1
 10
33.067289
 20
4.871484
 30
0.0
 10
33.037973
 20
5.106010
 30
0.0
 10
33.048774
 20
5.340536
 30
0.0
 10
33.079632
 20
5.571976
 30
0.0
  0
SPLINE
  5
183
100
AcDbEntity
  8
0
 62
7
100
AcDbSpline
 70
8
 71
3
 72
8
 73
4
 74
0
 40
0
 40
0
 40
0
 40
0
 40
1
 40
1
 40
1
 40
1
 10
33.079632
 20
5.571976
 30
0.0
 10
33.283299
 20
5.576605
 30
0.0
 10
33.485424
 20
5.602835
 30
0.0
 10
33.682919
 20
5.649123
 30
0.0
  0
SPLINE
  5
184
100
AcDbEntity
  8
0
 62
7
100
AcDbSpline
 70
8
 71
3
 72
8
 73
4
 74
0
 40
0
 40
0
 40
0
 40
0
 40
1
 40
1
 40
1
 40
1
 10
33.682919
 20
5.649123
 30
0.0
 10
33.749265
 20
6.034856
 30
0.0
 10
33.729207
 20
6.426761
 30
0.0
 10
33.747722
 20
6.815581
 30
0.0
  0
LWPOLYLINE
  5
185
100
AcDbEntity
  8
0
 62
7
100
AcDbPolyline
 90
1
 70
1
 10
67.223207
 20
4.839083
 30
0.0
  0
SPLINE
  5
186
100
AcDbEntity
  8
0
 62
7
100
AcDbSpline
 70
8
 71
3
 72
8
 73
4
 74
0
 40
0
 40
0
 40
0
 40
0
 40
1
 40
1
 40
1
 40
1
 10
2.458575
 20
5.430026
 30
0.0
 10
3.550972
 20
6.099659
 30
0.0
 10
5.422550
 20
5.642951
 30
0.0
 10
5.532098
 20
4.191051
 30
0.0
  0
SPLINE
  5
187
100
AcDbEntity
  8
0
 62
7
100
AcDbSpline
 70
8
 71
3
 72
8
 73
4
 74
0
 40
0
 40
0
 40
0
 40
0
 40
1
 40
1
 40
1
 40
1
 10
5.532098
 20
4.191051
 30
0.0
 10
5.180309
 20
4.164821
 30
0.0
 10
4.828521
 20
4.161735
 30
0.0
 10
4.476732
 20
4.186422
 30
0.0
  0
SPLINE
  5
188
100
AcDbEntity
  8
0
 62
7
100
AcDbSpline
 70
8
 71
3
 72
8
 73
4
 74
0
 40
0
 40
0
 40
0
 40
0
 40
1
 40
1
 40
1
 40
1
 10
4.476732
 20
4.186422
 30
0.0
 10
4.322438
 20
4.863770
 30
0.0
 10
3.438338
 20
5.102924
 30
0.0
 10
2.956942
 20
4.613815
 30
0.0
  0
SPLINE
  5
189
100
AcDbEntity
  8
0
 62
7
100
AcDbSpline
 70
8
 71
3
 72
8
 73
4
 74
0
 40
0
 40
0
 40
0
 40
0
 40
1
 40
1
 40
1
 40
1
 10
2.956942
 20
4.613815
 30
0.0
 10
2.514120
 20
4.072245
 30
0.0
 10
2.498691
 20
3.245233
 30
0.0
 10
2.814992
 20
2.635774
 30
0.0
  0
SPLINE
  5
18a
100
AcDbEntity
  8
0
 62
7
100
AcDbSpline
 70
8
 71
3
 72
8
 73
4
 74
0
 40
0
 40
0
 40
0
 40
0
 40
1
 40
1
 40
1
 40
1
 10
2.814992
 20
2.635774
 30
0.0
 10
3.071119
 20
2.108091
 30
0.0
 10
3.933619
 20
2.038659
 30
0.0
 10
4.260721
 20
2.530854
 30
0.0
  0
SPLINE
  5
18b
100
AcDbEntity
  8
0
 62
7
100
AcDbSpline
 70
8
 71
3
 72
8
 73
4
 74
0
 40
0
 40
0
 40
0
 40
0
 40
1
 40
1
 40
1
 40
1
 10
4.260721
 20
2.530854
 30
0.0
 10
4.374898
 20
2.697491
 30
0.0
 10
4.464388
 20
2.878014
 30
0.0
 10
4.563136
 20
3.050823
 30
0.0
  0
SPLINE
  5
18c
100
AcDbEntity
  8
0
 62
7
100
AcDbSpline
 70
8
 71
3
 72
8
 73
4
 74
0
 40
0
 40
0
 40
0
 40
0
 40
1
 40
1
 40
1
 40
1
 10
4.563136
 20
3.050823
 30
0.0
 10
4.887152
 20
3.049280
 30
0.0
 10
5.211168
 20
3.044651
 30
0.0
 10
5.536727
 20
3.033851
 30
0.0
  0
SPLINE
  5
18d
100
AcDbEntity
  8
0
 62
7
100
AcDbSpline
 70
8
 71
3
 72
8
 73
4
 74
0
 40
0
 40
0
 40
0
 40
0
 40
1
 40
1
 40
1
 40
1
 10
5.536727
 20
3.033851
 30
0.0
 10
5.462666
 20
2.598743
 30
0.0
 10
5.320716
 20
2.145121
 30
0.0
 10
4.967385
 20
1.851964
 30
0.0
  0
SPLINE
  5
18e
100
AcDbEntity
  8
0
 62
7
100
AcDbSpline
 70
8
 71
3
 72
8
 73
4
 74
0
 40
0
 40
0
 40
0
 40
0
 40
1
 40
1
 40
1
 40
1
 10
4.967385
 20
1.851964
 30
0.0
 10
4.143458
 20
1.149929
 30
0.0
 10
2.760990
 20
1.216275
 30
0.0
 10
2.011124
 20
1.996999
 30
0.0
  0
SPLINE
  5
18f
100
AcDbEntity
  8
0
 62
7
100
AcDbSpline
 70
8
 71
3
 72
8
 73
4
 74
0
 40
0
 40
0
 40
0
 40
0
 40
1
 40
1
 40
1
 40
1
 10
2.011124
 20
1.996999
 30
0.0
 10
1.159425
 20
2.976762
 30
0.0
 10
1.321433
 20
4.738792
 30
0.0
 10
2.458575
 20
5.430026
 30
0.0
  0
LWPOLYLINE
  5
190
100
AcDbEntity
  8
0
 62
7
100
AcDbPolyline
 90
1
 70
1
 10
33.747722
 20
6.815581
 30
0.0
  0
SPLINE
  5
191
100
AcDbEntity
  8
0
 62
7
100
AcDbSpline
 70
8
 71
3
 72
8
 73
4
 74
0
 40
0
 40
0
 40
0
 40
0
 40
1
 40
1
 40
1
 40
1
 10
7.383618
 20
5.562719
 30
0.0
 10
8.212174
 20
5.869762
 30
0.0
 10
9.242853
 20
5.718555
 30
0.0
 10
9.856941
 20
5.053551
 30
0.0
  0
SPLINE
  5
192
100
AcDbEntity
  8
0
 62
7
100
AcDbSpline
 70
8
 71
3
 72
8
 73
4
 74
0
 40
0
 40
0
 40
0
 40
0
 40
1
 40
1
 40
1
 40
1
 10
9.856941
 20
5.053551
 30
0.0
 10
10.471028
 20
4.322200
 30
0.0
 10
10.531203
 20
3.222089
 30
0.0
 10
10.119239
 20
2.379647
 30
0.0
  0
SPLINE
  5
193
100
AcDbEntity
  8
0
 62
7
100
AcDbSpline
 70
8
 71
3
 72
8
 73
4
 74
0
 40
0
 40
0
 40
0
 40
0
 40
1
 40
1
 40
1
 40
1
 10
10.119239
 20
2.379647
 30
0.0
 10
9.386346
 20
1.037295
 30
0.0
 10
7.124406
 20
1.000264
 30
0.0
 10
6.385340
 20
2.353417
 30
0.0
  0
SPLINE
  5
194
100
AcDbEntity
  8
0
 62
7
100
AcDbSpline
 70
8
 71
3
 72
8
 73
4
 74
0
 40
0
 40
0
 40
0
 40
0
 40
1
 40
1
 40
1
 40
1
 10
6.385340
 20
2.353417
 30
0.0
 10
5.786682
 20
3.439642
 30
0.0
 10
6.118413
 20
5.126068
 30
0.0
 10
7.383618
 20
5.562719
 30
0.0
  0
SPLINE
  5
195
100
AcDbEntity
  8
0
 62
7
100
AcDbSpline
 70
8
 71
3
 72
8
 73
4
 74
0
 40
0
 40
0
 40
0
 40
0
 40
1
 40
1
 40
1
 40
1
 10
7.860385
 20
4.792795
 30
0.0
 10
7.124406
 20
4.441006
 30
0.0
 10
7.110519
 20
3.402612
 30
0.0
 10
7.382075
 20
2.737607
 30
0.0
  0
SPLINE
  5
196
100
AcDbEntity
  8
0
 62
7
100
AcDbSpline
 70
8
 71
3
 72
8
 73
4
 74
0
 40
0
 40
0
 40
0
 40
0
 40
1
 40
1
 40
1
 40
1
 10
7.382075
 20
2.737607
 30
0.0
 10
7.630488
 20
2.077232
 30
0.0
 10
8.636480
 20
2.021686
 30
0.0
 10
9.017585
 20
2.589486
 30
0.0
  0
SPLINE
  5
197
100
AcDbEntity
  8
0
 62
7
100
AcDbSpline
 70
8
 71
3
 72
8
 73
4
 74
0
 40
0
 40
0
 40
0
 40
0
 40
1
 40
1
 40
1
 40
1
 10
9.017585
 20
2.589486
 30
0.0
 10
9.326172
 20
3.100197
 30
0.0
 10
9.323086
 20
3.776002
 30
0.0
 10
9.102446
 20
4.317571
 30
0.0
  0
SPLINE
  5
198
100
AcDbEntity
  8
0
 62
7
100
AcDbSpline
 70
8
 71
3
 72
8
 73
4
 74
0
 40
0
 40
0
 40
0
 40
0
 40
1
 40
1
 40
1
 40
1
 10
9.102446
 20
4.317571
 30
0.0
 10
8.901865
 20
4.789709
 30
0.0
 10
8.323265
 20
4.990290
 30
0.0
 10
7.860385
 20
4.792795
 30
0.0
  0
LWPOLYLINE
  5
199
100
AcDbEntity
  8
0
 62
7
100
AcDbPolyline
 90
1
 70
1
 10
2.458575
 20
5.430026
 30
0.0
  0
SPLINE
  5
19a
100
AcDbEntity
  8
0
 62
7
100
AcDbSpline
 70
8
 71
3
 72
8
 73
4
 74
0
 40
0
 40
0
 40
0
 40
0
 40
1
 40
1
 40
1
 40
1
 10
12.325634
 20
5.564262
 30
0.0
 10
13.151104
 20
5.868219
 30
0.0
 10
14.178697
 20
5.717012
 30
0.0
 10
14.792785
 20
5.056636
 30
0.0
  0
SPLINE
  5
19b
100
AcDbEntity
  8
0
 62
7
100
AcDbSpline
 70
8
 71
3
 72
8
 73
4
 74
0
 40
0
 40
0
 40
0
 40
0
 40
1
 40
1
 40
1
 40
1
 10
14.792785
 20
5.056636
 30
0.0
 10
15.406872
 20
4.326829
 30
0.0
 10
15.470133
 20
3.229803
 30
0.0
 10
15.059712
 20
2.385819
 30
0.0
  0
SPLINE
  5
19c
100
AcDbEntity
  8
0
 62
7
100
AcDbSpline
 70
8
 71
3
 72
8
 73
4
 74
0
 40
0
 40
0
 40
0
 40
0
 40
1
 40
1
 40
1
 40
1
 10
15.059712
 20
2.385819
 30
0.0
 10
14.349963
 20
1.075868
 30
0.0
 10
12.180598
 20
0.994093
 30
0.0
 10
11.382902
 20
2.254669
 30
0.0
  0
SPLINE
  5
19d
100
AcDbEntity
  8
0
 62
7
100
AcDbSpline
 70
8
 71
3
 72
8
 73
4
 74
0
 40
0
 40
0
 40
0
 40
0
 40
1
 40
1
 40
1
 40
1
 10
11.382902
 20
2.254669
 30
0.0
 10
10.699382
 20
3.339351
 30
0.0
 10
11.020313
 20
5.115268
 30
0.0
 10
12.325634
 20
5.564262
 30
0.0
  0
SPLINE
  5
19e
100
AcDbEntity
  8
0
 62
7
100
AcDbSpline
 70
8
 71
3
 72
8
 73
4
 74
0
 40
0
 40
0
 40
0
 40
0
 40
1
 40
1
 40
1
 40
1
 10
12.793143
 20
4.791252
 30
0.0
 10
12.064878
 20
4.437920
 30
0.0
 10
12.050992
 20
3.414955
 30
0.0
 10
12.313291
 20
2.753037
 30
0.0
  0
SPLINE
  5
19f
100
AcDbEntity
  8
0
 62
7
100
AcDbSpline
 70
8
 71
3
 72
8
 73
4
 74
0
 40
0
 40
0
 40
0
 40
0
 40
1
 40
1
 40
1
 40
1
 10
12.313291
 20
2.753037
 30
0.0
 10
12.552445
 20
2.081861
 30
0.0
 10
13.567696
 20
2.017058
 30
0.0
 10
13.953429
 20
2.586400
 30
0.0
  0
SPLINE
  5
1a0
100
AcDbEntity
  8
0
 62
7
100
AcDbSpline
 70
8
 71
3
 72
8
 73
4
 74
0
 40
0
 40
0
 40
0
 40
0
 40
1
 40
1
 40
1
 40
1
 10
13.953429
 20
2.586400
 30
0.0
 10
14.263559
 20
3.095568
 30
0.0
 10
14.260473
 20
3.766744
 30
0.0
 10
14.042919
 20
4.308314
 30
0.0
  0
SPLINE
  5
1a1
100
AcDbEntity
  8
0
 62
7
100
AcDbSpline
 70
8
 71
3
 72
8
 73
4
 74
0
 40
0
 40
0
 40
0
 40
0
 40
1
 40
1
 40
1
 40
1
 10
14.042919
 20
4.308314
 30
0.0
 10
13.845424
 20
4.788166
 30
0.0
 10
13.260652
 20
4.993376
 30
0.0
 10
12.793143
 20
4.791252
 30
0.0
  0
LWPOLYLINE
  5
1a2
100
AcDbEntity
  8
0
 62
7
100
AcDbPolyline
 90
1
 70
1
 10
7.860385
 20
4.792795
 30
0.0
  0
SPLINE
  5
1a3
100
AcDbEntity
  8
0
 62
7
100
AcDbSpline
 70
8
 71
3
 72
8
 73
4
 74
0
 40
0
 40
0
 40
0
 40
0
 40
1
 40
1
 40
1
 40
1
 10
16.133594
 20
5.587406
 30
0.0
 10
16.446810
 20
5.592034
 30
0.0
 10
16.760025
 20
5.595120
 30
0.0
 10
17.074783
 20
5.595120
 30
0.0
  0
SPLINE
  5
1a4
100
AcDbEntity
  8
0
 62
7
100
AcDbSpline
 70
8
 71
3
 72
8
 73
4
 74
0
 40
0
 40
0
 40
0
 40
0
 40
1
 40
1
 40
1
 40
1
 10
17.074783
 20
5.595120
 30
0.0
 10
17.113357
 20
5.504087
 30
0.0
 10
17.190503
 20
5.322021
 30
0.0
 10
17.229077
 20
5.230988
 30
0.0
  0
SPLINE
  5
1a5
100
AcDbEntity
  8
0
 62
7
100
AcDbSpline
 70
8
 71
3
 72
8
 73
4
 74
0
 40
0
 40
0
 40
0
 40
0
 40
1
 40
1
 40
1
 40
1
 10
17.229077
 20
5.230988
 30
0.0
 10
17.948084
 20
5.874391
 30
0.0
 10
19.151572
 20
5.879020
 30
0.0
 10
19.785718
 20
5.116811
 30
0.0
  0
SPLINE
  5
1a6
100
AcDbEntity
  8
0
 62
7
100
AcDbSpline
 70
8
 71
3
 72
8
 73
4
 74
0
 40
0
 40
0
 40
0
 40
0
 40
1
 40
1
 40
1
 40
1
 10
19.785718
 20
5.116811
 30
0.0
 10
20.544841
 20
4.123162
 30
0.0
 10
20.515525
 20
2.459879
 30
0.0
 10
19.492560
 20
1.656011
 30
0.0
  0
SPLINE
  5
1a7
100
AcDbEntity
  8
0
 62
7
100
AcDbSpline
 70
8
 71
3
 72
8
 73
4
 74
0
 40
0
 40
0
 40
0
 40
0
 40
1
 40
1
 40
1
 40
1
 10
19.492560
 20
1.656011
 30
0.0
 10
18.810584
 20
1.159187
 30
0.0
 10
17.883281
 20
1.338167
 30
0.0
 10
17.247592
 20
1.822648
 30
0.0
  0
SPLINE
  5
1a8
100
AcDbEntity
  8
0
 62
7
100
AcDbSpline
 70
8
 71
3
 72
8
 73
4
 74
0
 40
0
 40
0
 40
0
 40
0
 40
1
 40
1
 40
1
 40
1
 10
17.247592
 20
1.822648
 30
0.0
 10
17.207476
 20
1.234790
 30
0.0
 10
17.213647
 20
0.643847
 30
0.0
 10
17.221362
 20
0.054446
 30
0.0
  0
SPLINE
  5
1a9
100
AcDbEntity
  8
0
 62
7
100
AcDbSpline
 70
8
 71
3
 72
8
 73
4
 74
0
 40
0
 40
0
 40
0
 40
0
 40
1
 40
1
 40
1
 40
1
 10
17.221362
 20
0.054446
 30
0.0
 10
16.854144
 20
-0.018072
 30
0.0
 10
16.477668
 20
-0.008814
 30
0.0
 10
16.107364
 20
0.028216
 30
0.0
  0
SPLINE
  5
1aa
100
AcDbEntity
  8
0
 62
7
100
AcDbSpline
 70
8
 71
3
 72
8
 73
4
 74
0
 40
0
 40
0
 40
0
 40
0
 40
1
 40
1
 40
1
 40
1
 10
16.107364
 20
0.028216
 30
0.0
 10
16.111993
 20
1.881279
 30
0.0
 10
16.061076
 20
3.735885
 30
0.0
 10
16.133594
 20
5.587406
 30
0.0
  0
SPLINE
  5
1ab
100
AcDbEntity
  8
0
 62
7
100
AcDbSpline
 70
8
 71
3
 72
8
 73
4
 74
0
 40
0
 40
0
 40
0
 40
0
 40
1
 40
1
 40
1
 40
1
 10
17.745959
 20
4.757307
 30
0.0
 10
17.104099
 20
4.336086
 30
0.0
 10
17.053182
 20
3.359410
 30
0.0
 10
17.363312
 20
2.709835
 30
0.0
  0
SPLINE
  5
1ac
100
AcDbEntity
  8
0
 62
7
100
AcDbSpline
 70
8
 71
3
 72
8
 73
4
 74
0
 40
0
 40
0
 40
0
 40
0
 40
1
 40
1
 40
1
 40
1
 10
17.363312
 20
2.709835
 30
0.0
 10
17.605553
 20
2.151293
 30
0.0
 10
18.438737
 20
2.003171
 30
0.0
 10
18.850700
 20
2.453708
 30
0.0
  0
SPLINE
  5
1ad
100
AcDbEntity
  8
0
 62
7
100
AcDbSpline
 70
8
 71
3
 72
8
 73
4
 74
0
 40
0
 40
0
 40
0
 40
0
 40
1
 40
1
 40
1
 40
1
 10
18.850700
 20
2.453708
 30
0.0
 10
19.288893
 20
2.959790
 30
0.0
 10
19.268835
 20
3.743600
 30
0.0
 10
19.015794
 20
4.329915
 30
0.0
  0
SPLINE
  5
1ae
100
AcDbEntity
  8
0
 62
7
100
AcDbSpline
 70
8
 71
3
 72
8
 73
4
 74
0
 40
0
 40
0
 40
0
 40
0
 40
1
 40
1
 40
1
 40
1
 10
19.015794
 20
4.329915
 30
0.0
 10
18.826013
 20
4.819025
 30
0.0
 10
18.191867
 20
4.988747
 30
0.0
 10
17.745959
 20
4.757307
 30
0.0
  0
LWPOLYLINE
  5
1af
100
AcDbEntity
  8
0
 62
7
100
AcDbPolyline
 90
1
 70
1
 10
12.793143
 20
4.791252
 30
0.0
  0
SPLINE
  5
1b0
100
AcDbEntity
  8
0
 62
7
100
AcDbSpline
 70
8
 71
3
 72
8
 73
4
 74
0
 40
0
 40
0
 40
0
 40
0
 40
1
 40
1
 40
1
 40
1
 10
21.617180
 20
5.235617
 30
0.0
 10
22.367045
 20
5.886735
 30
0.0
 10
23.613735
 20
5.877477
 30
0.0
 10
24.331199
 20
5.178528
 30
0.0
  0
SPLINE
  5
1b1
100
AcDbEntity
  8
0
 62
7
100
AcDbSpline
 70
8
 71
3
 72
8
 73
4
 74
0
 40
0
 40
0
 40
0
 40
0
 40
1
 40
1
 40
1
 40
1
 10
24.331199
 20
5.178528
 30
0.0
 10
24.834196
 20
4.701762
 30
0.0
 10
25.005461
 20
3.976583
 30
0.0
 10
24.969974
 20
3.302321
 30
0.0
  0
SPLINE
  5
1b2
100
AcDbEntity
  8
0
 62
7
100
AcDbSpline
 70
8
 71
3
 72
8
 73
4
 74
0
 40
0
 40
0
 40
0
 40
0
 40
1
 40
1
 40
1
 40
1
 10
24.969974
 20
3.302321
 30
0.0
 10
23.965524
 20
3.208202
 30
0.0
 10
22.947188
 20
3.382554
 30
0.0
 10
21.953539
 20
3.197402
 30
0.0
  0
SPLINE
  5
1b3
100
AcDbEntity
  8
0
 62
7
100
AcDbSpline
 70
8
 71
3
 72
8
 73
4
 74
0
 40
0
 40
0
 40
0
 40
0
 40
1
 40
1
 40
1
 40
1
 10
21.953539
 20
3.197402
 30
0.0
 10
22.035315
 20
2.759209
 30
0.0
 10
22.249782
 20
2.240783
 30
0.0
 10
22.769751
 20
2.213010
 30
0.0
  0
SPLINE
  5
1b4
100
AcDbEntity
  8
0
 62
7
100
AcDbSpline
 70
8
 71
3
 72
8
 73
4
 74
0
 40
0
 40
0
 40
0
 40
0
 40
1
 40
1
 40
1
 40
1
 10
22.769751
 20
2.213010
 30
0.0
 10
23.272747
 20
2.077232
 30
0.0
 10
23.669281
 20
2.435192
 30
0.0
 10
24.027242
 20
2.722178
 30
0.0
  0
SPLINE
  5
1b5
100
AcDbEntity
  8
0
 62
7
100
AcDbSpline
 70
8
 71
3
 72
8
 73
4
 74
0
 40
0
 40
0
 40
0
 40
0
 40
1
 40
1
 40
1
 40
1
 10
24.027242
 20
2.722178
 30
0.0
 10
24.304970
 20
2.760751
 30
0.0
 10
24.587326
 20
2.729893
 30
0.0
 10
24.866597
 20
2.719092
 30
0.0
  0
SPLINE
  5
1b6
100
AcDbEntity
  8
0
 62
7
100
AcDbSpline
 70
8
 71
3
 72
8
 73
4
 74
0
 40
0
 40
0
 40
0
 40
0
 40
1
 40
1
 40
1
 40
1
 10
24.866597
 20
2.719092
 30
0.0
 10
24.559554
 20
1.336624
 30
0.0
 10
22.706491
 20
0.994093
 30
0.0
 10
21.668096
 20
1.756302
 30
0.0
  0
SPLINE
  5
1b7
100
AcDbEntity
  8
0
 62
7
100
AcDbSpline
 70
8
 71
3
 72
8
 73
4
 74
0
 40
0
 40
0
 40
0
 40
0
 40
1
 40
1
 40
1
 40
1
 10
21.668096
 20
1.756302
 30
0.0
 10
20.580328
 20
2.552455
 30
0.0
 10
20.574157
 20
4.397804
 30
0.0
 10
21.617180
 20
5.235617
 30
0.0
  0
SPLINE
  5
1b8
100
AcDbEntity
  8
0
 62
7
100
AcDbSpline
 70
8
 71
3
 72
8
 73
4
 74
0
 40
0
 40
0
 40
0
 40
0
 40
1
 40
1
 40
1
 40
1
 10
22.027600
 20
3.988926
 30
0.0
 10
22.583056
 20
3.975040
 30
0.0
 10
23.140055
 20
3.945724
 30
0.0
 10
23.695511
 20
3.987384
 30
0.0
  0
SPLINE
  5
1b9
100
AcDbEntity
  8
0
 62
7
100
AcDbSpline
 70
8
 71
3
 72
8
 73
4
 74
0
 40
0
 40
0
 40
0
 40
0
 40
1
 40
1
 40
1
 40
1
 10
23.695511
 20
3.987384
 30
0.0
 10
23.919236
 20
4.152477
 30
0.0
 10
23.692425
 20
4.441006
 30
0.0
 10
23.585963
 20
4.604557
 30
0.0
  0
SPLINE
  5
1ba
100
AcDbEntity
  8
0
 62
7
100
AcDbSpline
 70
8
 71
3
 72
8
 73
4
 74
0
 40
0
 40
0
 40
0
 40
0
 40
1
 40
1
 40
1
 40
1
 10
23.585963
 20
4.604557
 30
0.0
 10
23.076795
 20
5.144584
 30
0.0
 10
21.953539
 20
4.786623
 30
0.0
 10
22.027600
 20
3.988926
 30
0.0
  0
LWPOLYLINE
  5
1bb
100
AcDbEntity
  8
0
 62
7
100
AcDbPolyline
 90
1
 70
1
 10
17.745959
 20
4.757307
 30
0.0
  0
SPLINE
  5
1bc
100
AcDbEntity
  8
0
 62
7
100
AcDbSpline
 70
8
 71
3
 72
8
 73
4
 74
0
 40
0
 40
0
 40
0
 40
0
 40
1
 40
1
 40
1
 40
1
 10
25.658122
 20
5.545746
 30
0.0
 10
25.988310
 20
5.658380
 30
0.0
 10
26.337013
 20
5.636779
 30
0.0
 10
26.679544
 20
5.596663
 30
0.0
  0
SPLINE
  5
1bd
100
AcDbEntity
  8
0
 62
7
100
AcDbSpline
 70
8
 71
3
 72
8
 73
4
 74
0
 40
0
 40
0
 40
0
 40
0
 40
1
 40
1
 40
1
 40
1
 10
26.679544
 20
5.596663
 30
0.0
 10
26.704231
 20
5.459342
 30
0.0
 10
26.752062
 20
5.183157
 30
0.0
 10
26.775206
 20
5.044293
 30
0.0
  0
SPLINE
  5
1be
100
AcDbEntity
  8
0
 62
7
100
AcDbSpline
 70
8
 71
3
 72
8
 73
4
 74
0
 40
0
 40
0
 40
0
 40
0
 40
1
 40
1
 40
1
 40
1
 10
26.775206
 20
5.044293
 30
0.0
 10
27.137795
 20
5.419226
 30
0.0
 10
27.606847
 20
5.798787
 30
0.0
 10
28.166932
 20
5.703126
 30
0.0
  0
SPLINE
  5
1bf
100
AcDbEntity
  8
0
 62
7
100
AcDbSpline
 70
8
 71
3
 72
8
 73
4
 74
0
 40
0
 40
0
 40
0
 40
0
 40
1
 40
1
 40
1
 40
1
 10
28.166932
 20
5.703126
 30
0.0
 10
28.463175
 20
5.484029
 30
0.0
 10
28.274937
 20
5.022692
 30
0.0
 10
28.316597
 20
4.700219
 30
0.0
  0
SPLINE
  5
1c0
100
AcDbEntity
  8
0
 62
7
100
AcDbSpline
 70
8
 71
3
 72
8
 73
4
 74
0
 40
0
 40
0
 40
0
 40
0
 40
1
 40
1
 40
1
 40
1
 10
28.316597
 20
4.700219
 30
0.0
 10
27.805886
 20
4.680161
 30
0.0
 10
27.145510
 20
4.664731
 30
0.0
 10
26.923328
 20
4.098475
 30
0.0
  0
SPLINE
  5
1c1
100
AcDbEntity
  8
0
 62
7
100
AcDbSpline
 70
8
 71
3
 72
8
 73
4
 74
0
 40
0
 40
0
 40
0
 40
0
 40
1
 40
1
 40
1
 40
1
 10
26.923328
 20
4.098475
 30
0.0
 10
26.640971
 20
3.305407
 30
0.0
 10
26.863153
 20
2.438278
 30
0.0
 10
26.769034
 20
1.615895
 30
0.0
  0
SPLINE
  5
1c2
100
AcDbEntity
  8
0
 62
7
100
AcDbSpline
 70
8
 71
3
 72
8
 73
4
 74
0
 40
0
 40
0
 40
0
 40
0
 40
1
 40
1
 40
1
 40
1
 10
26.769034
 20
1.615895
 30
0.0
 10
26.531423
 20
1.301136
 30
0.0
 10
26.028426
 20
1.532576
 30
0.0
 10
25.684352
 20
1.478574
 30
0.0
  0
SPLINE
  5
1c3
100
AcDbEntity
  8
0
 62
7
100
AcDbSpline
 70
8
 71
3
 72
8
 73
4
 74
0
 40
0
 40
0
 40
0
 40
0
 40
1
 40
1
 40
1
 40
1
 10
25.684352
 20
1.478574
 30
0.0
 10
25.638064
 20
2.833269
 30
0.0
 10
25.687438
 20
4.191051
 30
0.0
 10
25.658122
 20
5.545746
 30
0.0
  0
LWPOLYLINE
  5
1c4
100
AcDbEntity
  8
0
 62
7
100
AcDbPolyline
 90
1
 70
1
 10
22.027600
 20
3.988926
 30
0.0
  0
SPLINE
  5
1c5
100
AcDbEntity
  8
0
 62
7
100
AcDbSpline
 70
8
 71
3
 72
8
 73
4
 74
0
 40
0
 40
0
 40
0
 40
0
 40
1
 40
1
 40
1
 40
1
 10
28.733189
 20
4.368488
 30
0.0
 10
28.725474
 20
5.217102
 30
0.0
 10
29.587974
 20
5.698497
 30
0.0
 10
30.345554
 20
5.712383
 30
0.0
  0
SPLINE
  5
1c6
100
AcDbEntity
  8
0
 62
7
100
AcDbSpline
 70
8
 71
3
 72
8
 73
4
 74
0
 40
0
 40
0
 40
0
 40
0
 40
1
 40
1
 40
1
 40
1
 10
30.345554
 20
5.712383
 30
0.0
 10
31.072276
 20
5.757128
 30
0.0
 10
32.075183
 20
5.730898
 30
0.0
 10
32.406913
 20
4.945545
 30
0.0
  0
SPLINE
  5
1c7
100
AcDbEntity
  8
0
 62
7
100
AcDbSpline
 70
8
 71
3
 72
8
 73
4
 74
0
 40
0
 40
0
 40
0
 40
0
 40
1
 40
1
 40
1
 40
1
 10
32.406913
 20
4.945545
 30
0.0
 10
32.542691
 20
3.800689
 30
0.0
 10
32.363711
 20
2.632688
 30
0.0
 10
32.530348
 20
1.484745
 30
0.0
  0
SPLINE
  5
1c8
100
AcDbEntity
  8
0
 62
7
100
AcDbSpline
 70
8
 71
3
 72
8
 73
4
 74
0
 40
0
 40
0
 40
0
 40
0
 40
1
 40
1
 40
1
 40
1
 10
32.530348
 20
1.484745
 30
0.0
 10
32.102955
 20
1.472402
 30
0.0
 10
31.592244
 20
1.361311
 30
0.0
 10
31.288286
 20
1.748587
 30
0.0
  0
SPLINE
  5
1c9
100
AcDbEntity
  8
0
 62
7
100
AcDbSpline
 70
8
 71
3
 72
8
 73
4
 74
0
 40
0
 40
0
 40
0
 40
0
 40
1
 40
1
 40
1
 40
1
 10
31.288286
 20
1.748587
 30
0.0
 10
30.689628
 20
1.421485
 30
0.0
 10
29.944391
 20
1.183873
 30
0.0
 10
29.291731
 20
1.501718
 30
0.0
  0
SPLINE
  5
1ca
100
AcDbEntity
  8
0
 62
7
100
AcDbSpline
 70
8
 71
3
 72
8
 73
4
 74
0
 40
0
 40
0
 40
0
 40
0
 40
1
 40
1
 40
1
 40
1
 10
29.291731
 20
1.501718
 30
0.0
 10
28.506377
 20
1.776360
 30
0.0
 10
28.350541
 20
2.945903
 30
0.0
 10
28.936856
 20
3.484387
 30
0.0
  0
SPLINE
  5
1cb
100
AcDbEntity
  8
0
 62
7
100
AcDbSpline
 70
8
 71
3
 72
8
 73
4
 74
0
 40
0
 40
0
 40
0
 40
0
 40
1
 40
1
 40
1
 40
1
 10
28.936856
 20
3.484387
 30
0.0
 10
29.566373
 20
3.971954
 30
0.0
 10
30.425787
 20
3.797603
 30
0.0
 10
31.130907
 20
4.078417
 30
0.0
  0
SPLINE
  5
1cc
100
AcDbEntity
  8
0
 62
7
100
AcDbSpline
 70
8
 71
3
 72
8
 73
4
 74
0
 40
0
 40
0
 40
0
 40
0
 40
1
 40
1
 40
1
 40
1
 10
31.130907
 20
4.078417
 30
0.0
 10
31.570643
 20
4.311400
 30
0.0
 10
31.249713
 20
5.011891
 30
0.0
 10
30.797634
 20
4.970232
 30
0.0
  0
SPLINE
  5
1cd
100
AcDbEntity
  8
0
 62
7
100
AcDbSpline
 70
8
 71
3
 72
8
 73
4
 74
0
 40
0
 40
0
 40
0
 40
0
 40
1
 40
1
 40
1
 40
1
 10
30.797634
 20
4.970232
 30
0.0
 10
30.314695
 20
5.084409
 30
0.0
 10
29.922790
 20
4.775823
 30
0.0
 10
29.739181
 20
4.356145
 30
0.0
  0
SPLINE
  5
1ce
100
AcDbEntity
  8
0
 62
7
100
AcDbSpline
 70
8
 71
3
 72
8
 73
4
 74
0
 40
0
 40
0
 40
0
 40
0
 40
1
 40
1
 40
1
 40
1
 10
29.739181
 20
4.356145
 30
0.0
 10
29.402822
 20
4.357688
 30
0.0
 10
29.068005
 20
4.360773
 30
0.0
 10
28.733189
 20
4.368488
 30
0.0
  0
SPLINE
  5
1cf
100
AcDbEntity
  8
0
 62
7
100
AcDbSpline
 70
8
 71
3
 72
8
 73
4
 74
0
 40
0
 40
0
 40
0
 40
0
 40
1
 40
1
 40
1
 40
1
 10
29.733010
 20
2.836355
 30
0.0
 10
29.521628
 20
2.080318
 30
0.0
 10
30.600138
 20
1.901337
 30
0.0
 10
31.042960
 20
2.293243
 30
0.0
  0
SPLINE
  5
1d0
100
AcDbEntity
  8
0
 62
7
100
AcDbSpline
 70
8
 71
3
 72
8
 73
4
 74
0
 40
0
 40
0
 40
0
 40
0
 40
1
 40
1
 40
1
 40
1
 10
31.042960
 20
2.293243
 30
0.0
 10
31.370062
 20
2.557084
 30
0.0
 10
31.323774
 20
3.013793
 30
0.0
 10
31.345375
 20
3.387182
 30
0.0
  0
SPLINE
  5
1d1
100
AcDbEntity
  8
0
 62
7
100
AcDbSpline
 70
8
 71
3
 72
8
 73
4
 74
0
 40
0
 40
0
 40
0
 40
0
 40
1
 40
1
 40
1
 40
1
 10
31.345375
 20
3.387182
 30
0.0
 10
30.809977
 20
3.269919
 30
0.0
 10
30.046225
 20
3.394897
 30
0.0
 10
29.733010
 20
2.836355
 30
0.0
  0
LWPOLYLINE
  5
1d2
100
AcDbEntity
  8
0
 62
7
100
AcDbPolyline
 90
1
 70
1
 10
25.658122
 20
5.545746
 30
0.0
  0
SPLINE
  5
1d3
100
AcDbEntity
  8
0
 62
7
100
AcDbSpline
 70
8
 71
3
 72
8
 73
4
 74
0
 40
0
 40
0
 40
0
 40
0
 40
1
 40
1
 40
1
 40
1
 10
36.214873
 20
5.585863
 30
0.0
 10
36.574377
 20
5.592034
 30
0.0
 10
36.932337
 20
5.593577
 30
0.0
 10
37.291841
 20
5.592034
 30
0.0
  0
SPLINE
  5
1d4
100
AcDbEntity
  8
0
 62
7
100
AcDbSpline
 70
8
 71
3
 72
8
 73
4
 74
0
 40
0
 40
0
 40
0
 40
0
 40
1
 40
1
 40
1
 40
1
 10
37.291841
 20
5.592034
 30
0.0
 10
37.344300
 20
4.474951
 30
0.0
 10
37.298012
 20
3.356324
 30
0.0
 10
37.319613
 20
2.239240
 30
0.0
  0
SPLINE
  5
1d5
100
AcDbEntity
  8
0
 62
7
100
AcDbSpline
 70
8
 71
3
 72
8
 73
4
 74
0
 40
0
 40
0
 40
0
 40
0
 40
1
 40
1
 40
1
 40
1
 10
37.319613
 20
2.239240
 30
0.0
 10
37.296469
 20
2.000085
 30
0.0
 10
37.367444
 20
1.730072
 30
0.0
 10
37.247095
 20
1.509432
 30
0.0
  0
SPLINE
  5
1d6
100
AcDbEntity
  8
0
 62
7
100
AcDbSpline
 70
8
 71
3
 72
8
 73
4
 74
0
 40
0
 40
0
 40
0
 40
0
 40
1
 40
1
 40
1
 40
1
 10
37.247095
 20
1.509432
 30
0.0
 10
36.923079
 20
1.487831
 30
0.0
 10
36.426255
 20
1.311937
 30
0.0
 10
36.211787
 20
1.620524
 30
0.0
  0
SPLINE
  5
1d7
100
AcDbEntity
  8
0
 62
7
100
AcDbSpline
 70
8
 71
3
 72
8
 73
4
 74
0
 40
0
 40
0
 40
0
 40
0
 40
1
 40
1
 40
1
 40
1
 10
36.211787
 20
1.620524
 30
0.0
 10
36.182471
 20
2.941275
 30
0.0
 10
36.185557
 20
4.265112
 30
0.0
 10
36.214873
 20
5.585863
 30
0.0
  0
LWPOLYLINE
  5
1d8
100
AcDbEntity
  8
0
 62
7
100
AcDbPolyline
 90
1
 70
1
 10
29.733010
 20
2.836355
 30
0.0
  0
SPLINE
  5
1d9
100
AcDbEntity
  8
0
 62
7
100
AcDbSpline
 70
8
 71
3
 72
8
 73
4
 74
0
 40
0
 40
0
 40
0
 40
0
 40
1
 40
1
 40
1
 40
1
 10
39.200449
 20
1.534119
 30
0.0
 10
38.711339
 20
2.871843
 30
0.0
 10
38.172856
 20
4.209566
 30
0.0
 10
37.842668
 20
5.596663
 30
0.0
  0
SPLINE
  5
1da
100
AcDbEntity
  8
0
 62
7
100
AcDbSpline
 70
8
 71
3
 72
8
 73
4
 74
0
 40
0
 40
0
 40
0
 40
0
 40
1
 40
1
 40
1
 40
1
 10
37.842668
 20
5.596663
 30
0.0
 10
38.209886
 20
5.596663
 30
0.0
 10
38.578647
 20
5.592034
 30
0.0
 10
38.947408
 20
5.582777
 30
0.0
  0
SPLINE
  5
1db
100
AcDbEntity
  8
0
 62
7
100
AcDbSpline
 70
8
 71
3
 72
8
 73
4
 74
0
 40
0
 40
0
 40
0
 40
0
 40
1
 40
1
 40
1
 40
1
 10
38.947408
 20
5.582777
 30
0.0
 10
39.262167
 20
4.711019
 30
0.0
 10
39.472006
 20
3.805317
 30
0.0
 10
39.805279
 20
2.938189
 30
0.0
  0
SPLINE
  5
1dc
100
AcDbEntity
  8
0
 62
7
100
AcDbSpline
 70
8
 71
3
 72
8
 73
4
 74
0
 40
0
 40
0
 40
0
 40
0
 40
1
 40
1
 40
1
 40
1
 10
39.805279
 20
2.938189
 30
0.0
 10
40.289760
 20
3.734342
 30
0.0
 10
40.354563
 20
4.712562
 30
0.0
 10
40.741840
 20
5.555004
 30
0.0
  0
SPLINE
  5
1dd
100
AcDbEntity
  8
0
 62
7
100
AcDbSpline
 70
8
 71
3
 72
8
 73
4
 74
0
 40
0
 40
0
 40
0
 40
0
 40
1
 40
1
 40
1
 40
1
 10
40.741840
 20
5.555004
 30
0.0
 10
41.085914
 20
5.622893
 30
0.0
 10
41.437703
 20
5.590491
 30
0.0
 10
41.786406
 20
5.590491
 30
0.0
  0
SPLINE
  5
1de
100
AcDbEntity
  8
0
 62
7
100
AcDbSpline
 70
8
 71
3
 72
8
 73
4
 74
0
 40
0
 40
0
 40
0
 40
0
 40
1
 40
1
 40
1
 40
1
 10
41.786406
 20
5.590491
 30
0.0
 10
41.649085
 20
4.822111
 30
0.0
 10
41.315811
 20
4.109275
 30
0.0
 10
41.092086
 20
3.364038
 30
0.0
  0
SPLINE
  5
1df
100
AcDbEntity
  8
0
 62
7
100
AcDbSpline
 70
8
 71
3
 72
8
 73
4
 74
0
 40
0
 40
0
 40
0
 40
0
 40
1
 40
1
 40
1
 40
1
 10
41.092086
 20
3.364038
 30
0.0
 10
40.862189
 20
2.763837
 30
0.0
 10
40.712524
 20
2.129692
 30
0.0
 10
40.433253
 20
1.548006
 30
0.0
  0
SPLINE
  5
1e0
100
AcDbEntity
  8
0
 62
7
100
AcDbSpline
 70
8
 71
3
 72
8
 73
4
 74
0
 40
0
 40
0
 40
0
 40
0
 40
1
 40
1
 40
1
 40
1
 10
40.433253
 20
1.548006
 30
0.0
 10
40.066035
 20
1.404513
 30
0.0
 10
39.573839
 20
1.415313
 30
0.0
 10
39.200449
 20
1.534119
 30
0.0
  0
LWPOLYLINE
  5
1e1
100
AcDbEntity
  8
0
 62
7
100
AcDbPolyline
 90
1
 70
1
 10
36.214873
 20
5.585863
 30
0.0
  0
SPLINE
  5
1e2
100
AcDbEntity
  8
0
 62
7
100
AcDbSpline
 70
8
 71
3
 72
8
 73
4
 74
0
 40
0
 40
0
 40
0
 40
0
 40
1
 40
1
 40
1
 40
1
 10
42.909661
 20
5.235617
 30
0.0
 10
43.657984
 20
5.883649
 30
0.0
 10
44.901588
 20
5.879020
 30
0.0
 10
45.619052
 20
5.183157
 30
0.0
  0
SPLINE
  5
1e3
100
AcDbEntity
  8
0
 62
7
100
AcDbSpline
 70
8
 71
3
 72
8
 73
4
 74
0
 40
0
 40
0
 40
0
 40
0
 40
1
 40
1
 40
1
 40
1
 10
45.619052
 20
5.183157
 30
0.0
 10
46.125135
 20
4.706391
 30
0.0
 10
46.297943
 20
3.978126
 30
0.0
 10
46.262456
 20
3.302321
 30
0.0
  0
SPLINE
  5
1e4
100
AcDbEntity
  8
0
 62
7
100
AcDbSpline
 70
8
 71
3
 72
8
 73
4
 74
0
 40
0
 40
0
 40
0
 40
0
 40
1
 40
1
 40
1
 40
1
 10
46.262456
 20
3.302321
 30
0.0
 10
45.258006
 20
3.208202
 30
0.0
 10
44.239670
 20
3.381011
 30
0.0
 10
43.246021
 20
3.198945
 30
0.0
  0
SPLINE
  5
1e5
100
AcDbEntity
  8
0
 62
7
100
AcDbSpline
 70
8
 71
3
 72
8
 73
4
 74
0
 40
0
 40
0
 40
0
 40
0
 40
1
 40
1
 40
1
 40
1
 10
43.246021
 20
3.198945
 30
0.0
 10
43.326253
 20
2.757666
 30
0.0
 10
43.543807
 20
2.240783
 30
0.0
 10
44.065318
 20
2.211467
 30
0.0
  0
SPLINE
  5
1e6
100
AcDbEntity
  8
0
 62
7
100
AcDbSpline
 70
8
 71
3
 72
8
 73
4
 74
0
 40
0
 40
0
 40
0
 40
0
 40
1
 40
1
 40
1
 40
1
 10
44.065318
 20
2.211467
 30
0.0
 10
44.569858
 20
2.077232
 30
0.0
 10
44.963306
 20
2.438278
 30
0.0
 10
45.324352
 20
2.725264
 30
0.0
  0
SPLINE
  5
1e7
100
AcDbEntity
  8
0
 62
7
100
AcDbSpline
 70
8
 71
3
 72
8
 73
4
 74
0
 40
0
 40
0
 40
0
 40
0
 40
1
 40
1
 40
1
 40
1
 10
45.324352
 20
2.725264
 30
0.0
 10
45.600537
 20
2.759209
 30
0.0
 10
45.879808
 20
2.729893
 30
0.0
 10
46.159079
 20
2.719092
 30
0.0
  0
SPLINE
  5
1e8
100
AcDbEntity
  8
0
 62
7
100
AcDbSpline
 70
8
 71
3
 72
8
 73
4
 74
0
 40
0
 40
0
 40
0
 40
0
 40
1
 40
1
 40
1
 40
1
 10
46.159079
 20
2.719092
 30
0.0
 10
45.855121
 20
1.339710
 30
0.0
 10
44.005144
 20
0.995636
 30
0.0
 10
42.965207
 20
1.753216
 30
0.0
  0
SPLINE
  5
1e9
100
AcDbEntity
  8
0
 62
7
100
AcDbSpline
 70
8
 71
3
 72
8
 73
4
 74
0
 40
0
 40
0
 40
0
 40
0
 40
1
 40
1
 40
1
 40
1
 10
42.965207
 20
1.753216
 30
0.0
 10
41.872810
 20
2.546284
 30
0.0
 10
41.865095
 20
4.396261
 30
0.0
 10
42.909661
 20
5.235617
 30
0.0
  0
SPLINE
  5
1ea
100
AcDbEntity
  8
0
 62
7
100
AcDbSpline
 70
8
 71
3
 72
8
 73
4
 74
0
 40
0
 40
0
 40
0
 40
0
 40
1
 40
1
 40
1
 40
1
 10
43.312367
 20
3.993555
 30
0.0
 10
43.887881
 20
3.962697
 30
0.0
 10
44.463395
 20
3.975040
 30
0.0
 10
45.040452
 20
3.964240
 30
0.0
  0
SPLINE
  5
1eb
100
AcDbEntity
  8
0
 62
7
100
AcDbSpline
 70
8
 71
3
 72
8
 73
4
 74
0
 40
0
 40
0
 40
0
 40
0
 40
1
 40
1
 40
1
 40
1
 10
45.040452
 20
3.964240
 30
0.0
 10
45.143829
 20
4.349973
 30
0.0
 10
44.867644
 20
4.743421
 30
0.0
 10
44.488082
 20
4.825196
 30
0.0
  0
SPLINE
  5
1ec
100
AcDbEntity
  8
0
 62
7
100
AcDbSpline
 70
8
 71
3
 72
8
 73
4
 74
0
 40
0
 40
0
 40
0
 40
0
 40
1
 40
1
 40
1
 40
1
 10
44.488082
 20
4.825196
 30
0.0
 10
43.946513
 20
5.001091
 30
0.0
 10
43.270708
 20
4.596842
 30
0.0
 10
43.312367
 20
3.993555
 30
0.0
  0
LWPOLYLINE
  5
1ed
100
AcDbEntity
  8
0
 62
7
100
AcDbPolyline
 90
1
 70
1
 10
39.200449
 20
1.534119
 30
0.0
  0
SPLINE
  5
1ee
100
AcDbEntity
  8
0
 62
7
100
AcDbSpline
 70
8
 71
3
 72
8
 73
4
 74
0
 40
0
 40
0
 40
0
 40
0
 40
1
 40
1
 40
1
 40
1
 10
50.075044
 20
5.484029
 30
0.0
 10
51.170527
 20
6.073430
 30
0.0
 10
52.949529
 20
5.601292
 30
0.0
 10
53.054449
 20
4.192594
 30
0.0
  0
SPLINE
  5
1ef
100
AcDbEntity
  8
0
 62
7
100
AcDbSpline
 70
8
 71
3
 72
8
 73
4
 74
0
 40
0
 40
0
 40
0
 40
0
 40
1
 40
1
 40
1
 40
1
 10
53.054449
 20
4.192594
 30
0.0
 10
52.701117
 20
4.164821
 30
0.0
 10
52.347785
 20
4.160192
 30
0.0
 10
51.997539
 20
4.187965
 30
0.0
  0
SPLINE
  5
1f0
100
AcDbEntity
  8
0
 62
7
100
AcDbSpline
 70
8
 71
3
 72
8
 73
4
 74
0
 40
0
 40
0
 40
0
 40
0
 40
1
 40
1
 40
1
 40
1
 10
51.997539
 20
4.187965
 30
0.0
 10
51.843246
 20
4.863770
 30
0.0
 10
50.965317
 20
5.101381
 30
0.0
 10
50.483922
 20
4.618443
 30
0.0
  0
SPLINE
  5
1f1
100
AcDbEntity
  8
0
 62
7
100
AcDbSpline
 70
8
 71
3
 72
8
 73
4
 74
0
 40
0
 40
0
 40
0
 40
0
 40
1
 40
1
 40
1
 40
1
 10
50.483922
 20
4.618443
 30
0.0
 10
50.058072
 20
4.109275
 30
0.0
 10
50.031842
 20
3.343980
 30
0.0
 10
50.280254
 20
2.748408
 30
0.0
  0
SPLINE
  5
1f2
100
AcDbEntity
  8
0
 62
7
100
AcDbSpline
 70
8
 71
3
 72
8
 73
4
 74
0
 40
0
 40
0
 40
0
 40
0
 40
1
 40
1
 40
1
 40
1
 10
50.280254
 20
2.748408
 30
0.0
 10
50.466949
 20
2.174437
 30
0.0
 10
51.315563
 20
2.006257
 30
0.0
 10
51.716725
 20
2.449079
 30
0.0
  0
SPLINE
  5
1f3
100
AcDbEntity
  8
0
 62
7
100
AcDbSpline
 70
8
 71
3
 72
8
 73
4
 74
0
 40
0
 40
0
 40
0
 40
0
 40
1
 40
1
 40
1
 40
1
 10
51.716725
 20
2.449079
 30
0.0
 10
51.869476
 20
2.629602
 30
0.0
 10
51.968224
 20
2.848699
 30
0.0
 10
52.087030
 20
3.052366
 30
0.0
  0
SPLINE
  5
1f4
100
AcDbEntity
  8
0
 62
7
100
AcDbSpline
 70
8
 71
3
 72
8
 73
4
 74
0
 40
0
 40
0
 40
0
 40
0
 40
1
 40
1
 40
1
 40
1
 10
52.087030
 20
3.052366
 30
0.0
 10
52.411046
 20
3.049280
 30
0.0
 10
52.733519
 20
3.044651
 30
0.0
 10
53.059078
 20
3.033851
 30
0.0
  0
SPLINE
  5
1f5
100
AcDbEntity
  8
0
 62
7
100
AcDbSpline
 70
8
 71
3
 72
8
 73
4
 74
0
 40
0
 40
0
 40
0
 40
0
 40
1
 40
1
 40
1
 40
1
 10
53.059078
 20
3.033851
 30
0.0
 10
52.985017
 20
2.597200
 30
0.0
 10
52.841524
 20
2.143578
 30
0.0
 10
52.486649
 20
1.848878
 30
0.0
  0
SPLINE
  5
1f6
100
AcDbEntity
  8
0
 62
7
100
AcDbSpline
 70
8
 71
3
 72
8
 73
4
 74
0
 40
0
 40
0
 40
0
 40
0
 40
1
 40
1
 40
1
 40
1
 10
52.486649
 20
1.848878
 30
0.0
 10
51.664266
 20
1.151472
 30
0.0
 10
50.286426
 20
1.217818
 30
0.0
 10
49.535018
 20
1.993914
 30
0.0
  0
SPLINE
  5
1f7
100
AcDbEntity
  8
0
 62
7
100
AcDbSpline
 70
8
 71
3
 72
8
 73
4
 74
0
 40
0
 40
0
 40
0
 40
0
 40
1
 40
1
 40
1
 40
1
 10
49.535018
 20
1.993914
 30
0.0
 10
48.655545
 20
2.996820
 30
0.0
 10
48.856127
 20
4.840626
 30
0.0
 10
50.075044
 20
5.484029
 30
0.0
  0
LWPOLYLINE
  5
1f8
100
AcDbEntity
  8
0
 62
7
100
AcDbPolyline
 90
1
 70
1
 10
43.312367
 20
3.993555
 30
0.0
  0
SPLINE
  5
1f9
100
AcDbEntity
  8
0
 62
7
100
AcDbSpline
 70
8
 71
3
 72
8
 73
4
 74
0
 40
0
 40
0
 40
0
 40
0
 40
1
 40
1
 40
1
 40
1
 10
56.925669
 20
5.567347
 30
0.0
 10
57.751138
 20
5.868219
 30
0.0
 10
58.775646
 20
5.713926
 30
0.0
 10
59.386648
 20
5.053551
 30
0.0
  0
SPLINE
  5
1fa
100
AcDbEntity
  8
0
 62
7
100
AcDbSpline
 70
8
 71
3
 72
8
 73
4
 74
0
 40
0
 40
0
 40
0
 40
0
 40
1
 40
1
 40
1
 40
1
 10
59.386648
 20
5.053551
 30
0.0
 10
59.996106
 20
4.323743
 30
0.0
 10
60.059367
 20
3.231346
 30
0.0
 10
59.653575
 20
2.390447
 30
0.0
  0
SPLINE
  5
1fb
100
AcDbEntity
  8
0
 62
7
100
AcDbSpline
 70
8
 71
3
 72
8
 73
4
 74
0
 40
0
 40
0
 40
0
 40
0
 40
1
 40
1
 40
1
 40
1
 10
59.653575
 20
2.390447
 30
0.0
 10
58.943826
 20
1.072782
 30
0.0
 10
56.763661
 20
0.994093
 30
0.0
 10
55.969050
 20
2.260841
 30
0.0
  0
SPLINE
  5
1fc
100
AcDbEntity
  8
0
 62
7
100
AcDbSpline
 70
8
 71
3
 72
8
 73
4
 74
0
 40
0
 40
0
 40
0
 40
0
 40
1
 40
1
 40
1
 40
1
 10
55.969050
 20
2.260841
 30
0.0
 10
55.288616
 20
3.348609
 30
0.0
 10
55.615718
 20
5.124525
 30
0.0
 10
56.925669
 20
5.567347
 30
0.0
  0
SPLINE
  5
1fd
100
AcDbEntity
  8
0
 62
7
100
AcDbSpline
 70
8
 71
3
 72
8
 73
4
 74
0
 40
0
 40
0
 40
0
 40
0
 40
1
 40
1
 40
1
 40
1
 10
57.393178
 20
4.794338
 30
0.0
 10
56.654113
 20
4.447178
 30
0.0
 10
56.638683
 20
3.411869
 30
0.0
 10
56.907154
 20
2.746865
 30
0.0
  0
SPLINE
  5
1fe
100
AcDbEntity
  8
0
 62
7
100
AcDbSpline
 70
8
 71
3
 72
8
 73
4
 74
0
 40
0
 40
0
 40
0
 40
0
 40
1
 40
1
 40
1
 40
1
 10
56.907154
 20
2.746865
 30
0.0
 10
57.149394
 20
2.078775
 30
0.0
 10
58.164644
 20
2.018600
 30
0.0
 10
58.547292
 20
2.589486
 30
0.0
  0
SPLINE
  5
1ff
100
AcDbEntity
  8
0
 62
7
100
AcDbSpline
 70
8
 71
3
 72
8
 73
4
 74
0
 40
0
 40
0
 40
0
 40
0
 40
1
 40
1
 40
1
 40
1
 10
58.547292
 20
2.589486
 30
0.0
 10
58.852793
 20
3.097111
 30
0.0
 10
58.849707
 20
3.766744
 30
0.0
 10
58.635239
 20
4.306771
 30
0.0
  0
SPLINE
  5
200
100
AcDbEntity
  8
0
 62
7
100
AcDbSpline
 70
8
 71
3
 72
8
 73
4
 74
0
 40
0
 40
0
 40
0
 40
0
 40
1
 40
1
 40
1
 40
1
 10
58.635239
 20
4.306771
 30
0.0
 10
58.439287
 20
4.783537
 30
0.0
 10
57.860687
 20
4.991833
 30
0.0
 10
57.393178
 20
4.794338
 30
0.0
  0
LWPOLYLINE
  5
201
100
AcDbEntity
  8
0
 62
7
100
AcDbPolyline
 90
1
 70
1
 10
50.075044
 20
5.484029
 30
0.0
  0
SPLINE
  5
202
100
AcDbEntity
  8
0
 62
7
100
AcDbSpline
 70
8
 71
3
 72
8
 73
4
 74
0
 40
0
 40
0
 40
0
 40
0
 40
1
 40
1
 40
1
 40
1
 10
60.688884
 20
5.176985
 30
0.0
 10
60.577792
 20
5.803416
 30
0.0
 10
61.372403
 20
5.570433
 30
0.0
 10
61.745793
 20
5.571976
 30
0.0
  0
SPLINE
  5
203
100
AcDbEntity
  8
0
 62
7
100
AcDbSpline
 70
8
 71
3
 72
8
 73
4
 74
0
 40
0
 40
0
 40
0
 40
0
 40
1
 40
1
 40
1
 40
1
 10
61.745793
 20
5.571976
 30
0.0
 10
61.944831
 20
4.610729
 30
0.0
 10
61.657846
 20
3.581592
 30
0.0
 10
61.904715
 20
2.620344
 30
0.0
  0
SPLINE
  5
204
100
AcDbEntity
  8
0
 62
7
100
AcDbSpline
 70
8
 71
3
 72
8
 73
4
 74
0
 40
0
 40
0
 40
0
 40
0
 40
1
 40
1
 40
1
 40
1
 10
61.904715
 20
2.620344
 30
0.0
 10
62.190158
 20
1.975398
 30
0.0
 10
63.297984
 20
2.175980
 30
0.0
 10
63.402904
 20
2.856413
 30
0.0
  0
SPLINE
  5
205
100
AcDbEntity
  8
0
 62
7
100
AcDbSpline
 70
8
 71
3
 72
8
 73
4
 74
0
 40
0
 40
0
 40
0
 40
0
 40
1
 40
1
 40
1
 40
1
 10
63.402904
 20
2.856413
 30
0.0
 10
63.558740
 20
3.717370
 30
0.0
 10
63.404446
 20
4.598385
 30
0.0
 10
63.484679
 20
5.463971
 30
0.0
  0
SPLINE
  5
206
100
AcDbEntity
  8
0
 62
7
100
AcDbSpline
 70
8
 71
3
 72
8
 73
4
 74
0
 40
0
 40
0
 40
0
 40
0
 40
1
 40
1
 40
1
 40
1
 10
63.484679
 20
5.463971
 30
0.0
 10
63.720748
 20
5.720098
 30
0.0
 10
64.195971
 20
5.573519
 30
0.0
 10
64.521530
 20
5.559633
 30
0.0
  0
SPLINE
  5
207
100
AcDbEntity
  8
0
 62
7
100
AcDbSpline
 70
8
 71
3
 72
8
 73
4
 74
0
 40
0
 40
0
 40
0
 40
0
 40
1
 40
1
 40
1
 40
1
 10
64.521530
 20
5.559633
 30
0.0
 10
64.638793
 20
5.349794
 30
0.0
 10
64.566275
 20
5.087495
 30
0.0
 10
64.590962
 20
4.854512
 30
0.0
  0
SPLINE
  5
208
100
AcDbEntity
  8
0
 62
7
100
AcDbSpline
 70
8
 71
3
 72
8
 73
4
 74
0
 40
0
 40
0
 40
0
 40
0
 40
1
 40
1
 40
1
 40
1
 10
64.590962
 20
4.854512
 30
0.0
 10
64.575533
 20
3.728171
 30
0.0
 10
64.600220
 20
2.601829
 30
0.0
 10
64.575533
 20
1.475488
 30
0.0
  0
SPLINE
  5
209
100
AcDbEntity
  8
0
 62
7
100
AcDbSpline
 70
8
 71
3
 72
8
 73
4
 74
0
 40
0
 40
0
 40
0
 40
0
 40
1
 40
1
 40
1
 40
1
 10
64.575533
 20
1.475488
 30
0.0
 10
64.169741
 20
1.526405
 30
0.0
 10
63.470793
 20
1.231704
 30
0.0
 10
63.443020
 20
1.855049
 30
0.0
  0
SPLINE
  5
20a
100
AcDbEntity
  8
0
 62
7
100
AcDbSpline
 70
8
 71
3
 72
8
 73
4
 74
0
 40
0
 40
0
 40
0
 40
0
 40
1
 40
1
 40
1
 40
1
 10
63.443020
 20
1.855049
 30
0.0
 10
62.881392
 20
1.389084
 30
0.0
 10
62.074438
 20
1.171530
 30
0.0
 10
61.390918
 20
1.498632
 30
0.0
  0
SPLINE
  5
20b
100
AcDbEntity
  8
0
 62
7
100
AcDbSpline
 70
8
 71
3
 72
8
 73
4
 74
0
 40
0
 40
0
 40
0
 40
0
 40
1
 40
1
 40
1
 40
1
 10
61.390918
 20
1.498632
 30
0.0
 10
60.915695
 20
1.696127
 30
0.0
 10
60.707399
 20
2.223811
 30
0.0
 10
60.702770
 20
2.706749
 30
0.0
  0
SPLINE
  5
20c
100
AcDbEntity
  8
0
 62
7
100
AcDbSpline
 70
8
 71
3
 72
8
 73
4
 74
0
 40
0
 40
0
 40
0
 40
0
 40
1
 40
1
 40
1
 40
1
 10
60.702770
 20
2.706749
 30
0.0
 10
60.671911
 20
3.529132
 30
0.0
 10
60.696598
 20
4.353059
 30
0.0
 10
60.688884
 20
5.176985
 30
0.0
  0
LWPOLYLINE
  5
20d
100
AcDbEntity
  8
0
 62
7
100
AcDbPolyline
 90
1
 70
1
 10
57.393178
 20
4.794338
 30
0.0
  0
LWPOLYLINE
  5
20e
100
AcDbEntity
  8
0
 62
7
100
AcDbPolyline
 90
1
 70
1
 10
60.688884
 20
5.176985
 30
0.0
  0
ENDSEC
  0
SECTION
  2
OBJECTS
  0
DICTIONARY
  5
C
330
0
100
AcDbDictionary
  3
ACAD_GROUP
350
D
  3
ACAD_MLINESTYLE
350
17
  0
DICTIONARY
  5
D
330
C
100
AcDbDictionary
  0
DICTIONARY
  5
1A
330
C
100
AcDbDictionary
  0
DICTIONARY
  5
17
330
C
100
AcDbDictionary
  3
STANDARD
350
18
  0
DICTIONARY
  5
19
330
C
100
AcDbDictionary
  0
ENDSEC
  0
EOF
